# This file uses centimeters as units for non-parametric coordinates.

# mtllib Snow covered CottageOBJ.mtl
# default
v -27.744078 -0.809079 45.828236
v 28.300514 -0.809079 45.828236
v -27.744078 0.415886 45.828236
v 28.300514 0.415886 45.828236
v -27.744078 0.415886 -68.105560
v 28.300514 0.415886 -68.105560
v -27.744078 -0.809079 -68.105560
v 28.300514 -0.809079 -68.105560
v -17.610035 38.674469 -65.801468
v -0.855988 38.674469 -65.801468
v 0.839669 38.674469 -65.801468
v 18.363262 38.674469 -65.801468
v -15.115449 40.420532 -65.801468
v -0.855988 40.420532 -65.801468
v 0.839669 40.420532 -65.801468
v 15.571358 40.420532 -65.801468
v -15.115449 40.420532 -67.153282
v -0.855988 40.420532 -67.153282
v 0.839669 40.420532 -67.153282
v 15.571358 40.420532 -67.153282
v -17.610035 38.674469 -67.153282
v -0.855988 38.674469 -67.153282
v 0.839669 38.674469 -67.153282
v 18.363262 38.674469 -67.153282
v -2.954945 40.420532 -65.801468
v -2.954945 40.420532 -67.153282
v -2.954945 38.674469 -67.153282
v -2.954945 38.674469 -65.801468
v 2.927156 40.420532 -65.801468
v 2.927156 40.420532 -67.153282
v 2.927156 38.674469 -67.153282
v 2.927156 38.674469 -65.801468
v -0.855988 50.111557 -65.801468
v 0.839669 50.111557 -65.801468
v 0.839669 50.111557 -67.153282
v -0.855988 50.111557 -67.153282
v 6.595290 46.032196 -65.801468
v 8.311405 45.611237 -65.801468
v 8.311405 45.611237 -67.153282
v 6.595290 46.032196 -67.153282
v -7.892234 45.493870 -65.801468
v -6.442813 45.992203 -65.801468
v -6.442813 45.992203 -67.153282
v -7.892234 45.493870 -67.153282
v 21.470514 -2.504905 42.609898
v 26.117308 -2.504905 42.609898
v 21.470514 -0.849932 42.609898
v 26.117308 -0.849932 42.609898
v 21.470514 -0.849932 -66.300133
v 26.117308 -0.849932 -66.300133
v 21.470514 -2.504905 -66.300133
v 26.117308 -2.504905 -66.300133
v -2.321620 -2.504905 42.609898
v 2.325172 -2.504905 42.609898
v -2.321620 -0.849932 42.609898
v 2.325172 -0.849932 42.609898
v -2.321620 -0.849932 -66.300133
v 2.325172 -0.849932 -66.300133
v -2.321620 -2.504905 -66.300133
v 2.325172 -2.504905 -66.300133
v -25.958979 -2.504905 42.609898
v -21.312185 -2.504905 42.609898
v -25.958979 -0.849932 42.609898
v -21.312185 -0.849932 42.609898
v -25.958979 -0.849932 -66.300133
v -21.312185 -0.849932 -66.300133
v -25.958979 -2.504905 -66.300133
v -21.312185 -2.504905 -66.300133
v 32.504593 28.757729 48.775940
v 0.027711 50.065269 48.775940
v 32.504593 28.757729 -67.807724
v 0.027711 50.065269 -67.807724
v 33.314659 29.590384 -67.807724
v 0.029299 51.299847 -67.807724
v 33.314659 29.590384 48.775940
v 0.029299 51.299847 48.775940
v -31.635740 28.833237 48.775940
v -31.635740 28.833237 -67.807724
v -32.445808 29.665897 -67.807724
v -32.445808 29.665897 48.775940
v 28.213150 31.781122 -45.705757
v -27.613289 31.781122 -45.705757
v 28.213150 31.781122 45.831520
v -27.613289 31.781122 45.831520
v 0.029014 50.070129 -45.705757
v 0.029014 50.070129 45.831520
v 6.629813 31.781122 -45.705757
v 6.636309 45.782578 -45.705757
v -6.673108 31.781122 -45.705753
v -6.678928 45.631947 -45.705757
v 6.635945 44.998283 -45.705757
v -6.678651 44.971287 -45.705757
v 6.631285 34.953594 -45.705757
v -6.674455 34.985916 -45.705753
v -6.673795 31.781124 45.831520
v -6.701424 45.617062 45.831520
v 6.636650 31.781124 45.831520
v 6.642239 45.778732 45.831520
v -6.680182 34.979950 45.831520
v 6.637918 34.956730 45.831520
v -6.700057 44.932430 45.831520
v 6.641925 44.992458 45.831520
v 5.080950 36.126003 -45.705757
v -5.120116 36.150780 -45.705753
v -5.123334 43.806232 -45.705757
v 5.084523 43.826927 -45.705757
v -5.124556 36.143829 45.831528
v 5.085989 36.126026 45.831528
v 5.089060 43.820084 45.831528
v -5.139792 43.774059 45.831528
v 28.164190 0.000000 -45.705757
v -27.662249 0.000000 -45.705757
v 28.164190 31.781122 -45.705757
v -27.662249 31.781122 -45.705757
v 28.164190 31.781122 45.831520
v -27.662249 31.781122 45.831520
v 28.164190 0.000000 45.831520
v -27.662249 0.000000 45.831520
v 28.164190 22.680925 -45.705757
v 28.164190 22.680925 45.831520
v -27.662249 22.680925 45.831520
v -27.662249 22.680925 -45.705757
v 6.644016 22.680925 -45.705757
v 6.644016 0.000000 -45.705757
v 6.644016 0.000000 45.831520
v 6.644016 22.680925 45.831520
v -6.670341 22.680925 -45.705757
v -6.670341 0.000000 -45.705757
v -6.670341 0.000000 45.831520
v -6.670341 22.680925 45.831520
v 28.164190 5.800491 -45.705757
v 28.164190 5.800491 45.831520
v 6.644016 5.800491 45.831520
v -6.670341 5.800491 45.831520
v -27.662249 5.800491 45.831520
v -27.662249 5.800491 -45.705757
v -6.670341 5.800491 -45.705757
v 6.644016 5.800491 -45.705757
v 23.162098 5.800491 -45.705757
v 23.162098 22.680927 -45.705757
v 11.664497 5.800491 -45.705757
v 11.664497 22.680927 -45.705757
v -11.423465 5.800491 -45.705757
v -11.423465 22.680925 -45.705757
v -23.102173 5.800491 -45.705757
v -23.102173 22.680923 -45.705757
v -27.662249 22.680925 -29.707306
v -27.662249 5.800491 -29.707306
v 28.164192 5.800491 -29.707306
v 28.164192 22.680925 -29.707306
v 28.164192 31.781122 -29.707306
v -27.662249 31.781122 -29.707306
v -27.662251 22.680925 -15.749038
v -27.662251 5.800491 -15.749038
v 28.164190 5.800491 -15.749038
v 28.164190 22.680925 -15.749038
v 28.164190 31.781122 -15.749038
v -27.662251 31.781122 -15.749038
v -27.662251 22.680925 16.191715
v -27.662251 5.800491 16.191715
v 28.164190 5.800491 16.191715
v 28.164190 22.680925 16.191715
v 28.164190 31.781124 16.191715
v -27.662251 31.781124 16.191715
v -27.662251 22.680925 29.855343
v -27.662251 5.800491 29.855343
v 28.164190 5.800491 29.855343
v 28.164190 22.680925 29.855343
v 28.164190 31.781122 29.855343
v -27.662251 31.781122 29.855343
v 26.629700 11.465782 -65.536079
v 27.859314 11.465782 -65.536079
v 26.629700 10.466601 -65.536079
v 27.859314 10.466601 -65.536079
v 26.629700 1.435803 -65.536079
v 27.859314 1.435803 -65.536079
v 27.859314 2.403967 -65.536079
v 26.629700 2.403967 -65.536079
v 26.629700 10.466601 -47.238621
v 27.859314 10.466601 -47.238621
v 26.629700 11.465782 -47.238621
v 27.859314 11.465782 -47.238621
v 26.629700 1.435803 -47.238617
v 27.859314 1.435803 -47.238617
v 26.629700 2.403967 -47.238617
v 27.859314 2.403967 -47.238617
v 27.571251 2.303133 -63.884789
v 27.571251 2.303133 -62.771683
v 27.571251 10.593222 -63.884789
v 27.571251 10.593222 -62.771683
v 26.962593 10.593222 -63.884789
v 26.962593 10.593222 -62.771683
v 26.962593 2.303133 -63.884789
v 26.962593 2.303133 -62.771683
v 27.571251 2.303133 -60.425510
v 27.571251 2.303133 -59.312405
v 27.571251 10.593222 -60.425510
v 27.571251 10.593222 -59.312405
v 26.962593 10.593222 -60.425510
v 26.962593 10.593222 -59.312405
v 26.962593 2.303133 -60.425510
v 26.962593 2.303133 -59.312405
v 27.571251 2.303133 -56.966232
v 27.571251 2.303133 -55.853127
v 27.571251 10.593222 -56.966232
v 27.571251 10.593222 -55.853127
v 26.962593 10.593222 -56.966232
v 26.962593 10.593222 -55.853127
v 26.962593 2.303133 -56.966232
v 26.962593 2.303133 -55.853127
v 27.571251 2.303133 -53.506954
v 27.571251 2.303133 -52.393848
v 27.571251 10.593222 -53.506954
v 27.571251 10.593222 -52.393848
v 26.962593 10.593222 -53.506954
v 26.962593 10.593222 -52.393848
v 26.962593 2.303133 -53.506954
v 26.962593 2.303133 -52.393848
v 27.571251 2.303133 -50.047676
v 27.571251 2.303133 -48.934570
v 27.571251 10.593222 -50.047676
v 27.571251 10.593222 -48.934570
v 26.962593 10.593222 -50.047676
v 26.962593 10.593222 -48.934570
v 26.962593 2.303133 -50.047676
v 26.962593 2.303133 -48.934570
v 6.772170 0.165378 -66.040298
v 8.154016 0.165378 -66.040298
v 6.772170 12.543603 -66.040298
v 8.154016 12.543603 -66.040298
v 6.772170 12.543603 -67.269913
v 8.154016 12.543603 -67.269913
v 6.772170 0.165378 -67.269913
v 8.154016 0.165378 -67.269913
v 7.071569 13.064303 -66.306717
v 7.854616 13.064303 -66.306717
v 7.854616 13.064303 -67.003494
v 7.071569 13.064303 -67.003494
v 8.154016 11.465782 -67.269913
v 8.154016 11.465782 -66.040298
v 8.154016 10.466601 -67.269913
v 8.154016 10.466601 -66.040298
v 8.154016 1.435803 -67.269913
v 8.154016 1.435803 -66.040298
v 8.154016 2.403967 -66.040298
v 8.154016 2.403967 -67.269913
v 26.137928 10.466601 -67.269913
v 26.137928 10.466601 -66.040298
v 26.137928 11.465782 -67.269913
v 26.137928 11.465782 -66.040298
v 26.137930 1.435803 -67.269913
v 26.137930 1.435803 -66.040298
v 26.137930 2.403967 -67.269913
v 26.137930 2.403967 -66.040298
v 9.777010 2.303133 -66.328362
v 10.871040 2.303133 -66.328362
v 9.777010 10.593222 -66.328362
v 10.871040 10.593222 -66.328362
v 9.777010 10.593222 -66.937019
v 10.871040 10.593222 -66.937019
v 9.777010 2.303133 -66.937019
v 10.871040 2.303133 -66.937019
v 13.177011 2.303133 -66.328362
v 14.271041 2.303133 -66.328362
v 13.177011 10.593222 -66.328362
v 14.271041 10.593222 -66.328362
v 13.177011 10.593222 -66.937019
v 14.271041 10.593222 -66.937019
v 13.177011 2.303133 -66.937019
v 14.271041 2.303133 -66.937019
v 16.577011 2.303133 -66.328362
v 17.671040 2.303133 -66.328362
v 16.577011 10.593222 -66.328362
v 17.671040 10.593222 -66.328362
v 16.577011 10.593222 -66.937019
v 17.671040 10.593222 -66.937019
v 16.577011 2.303133 -66.937019
v 17.671040 2.303133 -66.937019
v 19.977011 2.303133 -66.328362
v 21.071041 2.303133 -66.328362
v 19.977011 10.593222 -66.328362
v 21.071041 10.593222 -66.328362
v 19.977011 10.593222 -66.937019
v 21.071041 10.593222 -66.937019
v 19.977011 2.303133 -66.937019
v 21.071041 2.303133 -66.937019
v 23.377010 2.303133 -66.328362
v 24.471041 2.303133 -66.328362
v 23.377010 10.593222 -66.328362
v 24.471041 10.593222 -66.328362
v 23.377010 10.593222 -66.937019
v 24.471041 10.593222 -66.937019
v 23.377010 2.303133 -66.937019
v 24.471041 2.303133 -66.937019
v -6.697521 0.165378 -66.040298
v -8.079368 0.165378 -66.040298
v -6.697521 12.543603 -66.040298
v -8.079368 12.543603 -66.040298
v -6.697521 12.543603 -67.269913
v -8.079368 12.543603 -67.269913
v -6.697521 0.165378 -67.269913
v -8.079368 0.165378 -67.269913
v -6.996920 13.064303 -66.306717
v -7.779967 13.064303 -66.306717
v -7.779967 13.064303 -67.003494
v -6.996920 13.064303 -67.003494
v -8.079368 11.465782 -67.269913
v -8.079368 11.465782 -66.040298
v -8.079368 10.466601 -67.269913
v -8.079368 10.466601 -66.040298
v -8.079368 1.435803 -67.269913
v -8.079368 1.435803 -66.040298
v -8.079368 2.403967 -66.040298
v -8.079368 2.403967 -67.269913
v -26.063278 10.466601 -67.269913
v -26.063278 10.466601 -66.040298
v -26.063278 11.465782 -67.269913
v -26.063278 11.465782 -66.040298
v -26.063280 1.435803 -67.269913
v -26.063280 1.435803 -66.040298
v -26.063280 2.403967 -67.269913
v -26.063280 2.403967 -66.040298
v -9.702361 2.303133 -66.328362
v -10.796391 2.303133 -66.328362
v -9.702361 10.593222 -66.328362
v -10.796391 10.593222 -66.328362
v -9.702361 10.593222 -66.937019
v -10.796391 10.593222 -66.937019
v -9.702361 2.303133 -66.937019
v -10.796391 2.303133 -66.937019
v -13.102362 2.303133 -66.328362
v -14.196392 2.303133 -66.328362
v -13.102362 10.593222 -66.328362
v -14.196392 10.593222 -66.328362
v -13.102362 10.593222 -66.937019
v -14.196392 10.593222 -66.937019
v -13.102362 2.303133 -66.937019
v -14.196392 2.303133 -66.937019
v -16.502361 2.303133 -66.328362
v -17.596390 2.303133 -66.328362
v -16.502361 10.593222 -66.328362
v -17.596390 10.593222 -66.328362
v -16.502361 10.593222 -66.937019
v -17.596390 10.593222 -66.937019
v -16.502361 2.303133 -66.937019
v -17.596390 2.303133 -66.937019
v -19.902361 2.303133 -66.328362
v -20.996391 2.303133 -66.328362
v -19.902361 10.593222 -66.328362
v -20.996391 10.593222 -66.328362
v -19.902361 10.593222 -66.937019
v -20.996391 10.593222 -66.937019
v -19.902361 2.303133 -66.937019
v -20.996391 2.303133 -66.937019
v -23.302361 2.303133 -66.328362
v -24.396391 2.303133 -66.328362
v -23.302361 10.593222 -66.328362
v -24.396391 10.593222 -66.328362
v -23.302361 10.593222 -66.937019
v -24.396391 10.593222 -66.937019
v -23.302361 2.303133 -66.937019
v -24.396391 2.303133 -66.937019
v -27.228302 11.465782 -65.536079
v -25.998688 11.465782 -65.536079
v -27.228302 10.466601 -65.536079
v -25.998688 10.466601 -65.536079
v -27.228302 1.435803 -65.536079
v -25.998688 1.435803 -65.536079
v -25.998688 2.403967 -65.536079
v -27.228302 2.403967 -65.536079
v -27.228302 10.466601 -47.238621
v -25.998688 10.466601 -47.238621
v -27.228302 11.465782 -47.238621
v -25.998688 11.465782 -47.238621
v -27.228302 1.435803 -47.238617
v -25.998688 1.435803 -47.238617
v -27.228302 2.403967 -47.238617
v -25.998688 2.403967 -47.238617
v -26.286751 2.303133 -63.884789
v -26.286751 2.303133 -62.771683
v -26.286751 10.593222 -63.884789
v -26.286751 10.593222 -62.771683
v -26.895409 10.593222 -63.884789
v -26.895409 10.593222 -62.771683
v -26.895409 2.303133 -63.884789
v -26.895409 2.303133 -62.771683
v -26.286751 2.303133 -60.425510
v -26.286751 2.303133 -59.312405
v -26.286751 10.593222 -60.425510
v -26.286751 10.593222 -59.312405
v -26.895409 10.593222 -60.425510
v -26.895409 10.593222 -59.312405
v -26.895409 2.303133 -60.425510
v -26.895409 2.303133 -59.312405
v -26.286751 2.303133 -56.966232
v -26.286751 2.303133 -55.853127
v -26.286751 10.593222 -56.966232
v -26.286751 10.593222 -55.853127
v -26.895409 10.593222 -56.966232
v -26.895409 10.593222 -55.853127
v -26.895409 2.303133 -56.966232
v -26.895409 2.303133 -55.853127
v -26.286751 2.303133 -53.506954
v -26.286751 2.303133 -52.393848
v -26.286751 10.593222 -53.506954
v -26.286751 10.593222 -52.393848
v -26.895409 10.593222 -53.506954
v -26.895409 10.593222 -52.393848
v -26.895409 2.303133 -53.506954
v -26.895409 2.303133 -52.393848
v -26.286751 2.303133 -50.047676
v -26.286751 2.303133 -48.934570
v -26.286751 10.593222 -50.047676
v -26.286751 10.593222 -48.934570
v -26.895409 10.593222 -50.047676
v -26.895409 10.593222 -48.934570
v -26.895409 2.303133 -50.047676
v -26.895409 2.303133 -48.934570
v 26.004988 0.410680 -65.462578
v 28.035908 0.410680 -65.462578
v 26.004988 33.185593 -65.462578
v 28.035908 31.903362 -65.462578
v 26.004988 33.185593 -67.542999
v 28.035908 31.903362 -67.542999
v 26.004988 0.410680 -67.542999
v 28.035908 0.410680 -67.542999
v -25.240223 0.410680 -67.542999
v -27.271141 0.410680 -67.542999
v -25.240223 33.185593 -67.542999
v -27.271141 31.903362 -67.542999
v -25.240223 33.185593 -65.462578
v -27.271141 31.903362 -65.462578
v -25.240223 0.410680 -65.462578
v -27.271141 0.410680 -65.462578
v 26.430117 0.184734 -45.687309
v 28.200720 0.184734 -45.687309
v 26.430117 32.747101 -45.687309
v 28.200720 31.711952 -45.687309
v 26.430117 32.747101 -47.287987
v 28.200720 31.711952 -47.287987
v 26.430117 0.184734 -47.287987
v 28.200720 0.184734 -47.287987
v -25.881447 0.184734 -47.287987
v -27.652050 0.184734 -47.287987
v -25.881447 32.747101 -47.287987
v -27.652050 31.711952 -47.287987
v -25.881447 32.747101 -45.687309
v -27.652050 31.711952 -45.687309
v -25.881447 0.184734 -45.687309
v -27.652050 0.184734 -45.687309
v 2.334395 49.693542 -21.125719
v 9.929169 44.665550 -21.125719
v 2.334395 53.142334 -21.125719
v 9.929169 53.142334 -21.125719
v 2.334395 53.142334 -28.690008
v 9.929169 53.142334 -28.690008
v 2.334395 49.693542 -28.690008
v 9.929169 44.665550 -28.690008
v 1.333240 52.788548 -29.511992
v 1.333239 52.788548 -20.185596
v 10.659634 52.788548 -20.185589
v 10.659635 52.788548 -29.511988
v 5.996436 56.802944 -24.848791
# Limiter

vt 0.732222 0.152164
vt 0.732222 0.279789
vt 0.721600 0.279789
vt 0.721600 0.152164
vt 0.719341 0.152089
vt 0.719341 0.279714
vt 0.459891 0.279714
vt 0.459891 0.152089
vt 0.732225 0.152164
vt 0.732225 0.279789
vt 0.721603 0.279789
vt 0.721603 0.152164
vt 0.719341 0.152077
vt 0.719341 0.279702
vt 0.459891 0.279702
vt 0.459891 0.152077
vt 0.459891 0.282547
vt 0.719341 0.282547
vt 0.719341 0.293170
vt 0.459891 0.293170
vt 0.459891 0.282549
vt 0.719341 0.282549
vt 0.719341 0.293171
vt 0.459891 0.293171
vt 0.365817 0.868828
vt 0.341598 0.885780
vt 0.223537 0.885780
vt 0.223537 0.868828
vt 0.203159 0.868828
vt 0.203159 0.885780
vt 0.186697 0.885780
vt 0.186697 0.868828
vt 0.166430 0.885780
vt 0.166430 0.868828
vt 0.194362 0.820796
vt 0.312423 0.820796
vt 0.312423 0.833921
vt 0.194362 0.833921
vt 0.341613 0.885741
vt 0.223552 0.885741
vt 0.223552 0.868789
vt 0.365832 0.868789
vt 0.203174 0.885741
vt 0.186712 0.885741
vt 0.186712 0.868789
vt 0.203174 0.868789
vt 0.166445 0.885741
vt 0.166445 0.868789
vt 0.029940 0.844789
vt 0.166046 0.844789
vt 0.166046 0.857913
vt 0.029940 0.857913
vt 0.185539 0.844789
vt 0.201287 0.844789
vt 0.201287 0.857913
vt 0.185539 0.857913
vt 0.220674 0.844789
vt 0.220674 0.857913
vt 0.070194 0.820803
vt 0.192951 0.820803
vt 0.192951 0.833927
vt 0.070194 0.833927
vt 0.043688 0.885741
vt 0.016583 0.868789
vt 0.364033 0.844789
vt 0.364033 0.857913
vt 0.043673 0.885780
vt 0.016568 0.868828
vt 0.203159 0.979866
vt 0.186697 0.979866
vt 0.239875 0.799917
vt 0.239875 0.813041
vt 0.145789 0.813041
vt 0.145789 0.799917
vt 0.203174 0.979827
vt 0.186712 0.979827
vt 0.239875 0.799912
vt 0.239875 0.813036
vt 0.145789 0.813036
vt 0.145789 0.799912
vt 0.130818 0.940261
vt 0.114157 0.936175
vt 0.168675 0.795702
vt 0.168675 0.782578
vt 0.220949 0.782578
vt 0.220949 0.795702
vt 0.130833 0.940222
vt 0.114172 0.936135
vt 0.220949 0.782578
vt 0.220949 0.795703
vt 0.168663 0.795703
vt 0.168663 0.782578
vt 0.271471 0.935035
vt 0.257399 0.939873
vt 0.219005 0.765367
vt 0.219005 0.778491
vt 0.171097 0.778491
vt 0.171097 0.765367
vt 0.271486 0.934996
vt 0.257414 0.939834
vt 0.219005 0.765366
vt 0.219005 0.778490
vt 0.171087 0.778490
vt 0.171087 0.765366
vt 0.253131 0.266747
vt 0.253131 0.253632
vt 0.286179 0.253632
vt 0.286179 0.266747
vt 0.253108 0.266747
vt 0.253108 0.253632
vt 0.286157 0.253632
vt 0.286157 0.266747
vt 0.251963 0.013641
vt 0.287410 0.013641
vt 0.287410 0.267322
vt 0.251963 0.267322
vt 0.293288 0.267322
vt 0.293288 0.013641
vt 0.305913 0.013641
vt 0.305913 0.267322
vt 0.293294 0.267322
vt 0.293294 0.013641
vt 0.305918 0.013641
vt 0.305918 0.267322
vt 0.253131 0.266747
vt 0.253131 0.253632
vt 0.286179 0.253632
vt 0.286179 0.266747
vt 0.253108 0.266747
vt 0.253108 0.253632
vt 0.286157 0.253632
vt 0.286157 0.266747
vt 0.251963 0.013641
vt 0.287410 0.013641
vt 0.287410 0.267322
vt 0.251963 0.267322
vt 0.293288 0.267322
vt 0.293288 0.013641
vt 0.305913 0.013641
vt 0.305913 0.267322
vt 0.293294 0.267322
vt 0.293294 0.013641
vt 0.305918 0.013641
vt 0.305918 0.267322
vt 0.253131 0.266747
vt 0.253131 0.253632
vt 0.286179 0.253632
vt 0.286179 0.266747
vt 0.253108 0.266747
vt 0.253108 0.253632
vt 0.286157 0.253632
vt 0.286157 0.266747
vt 0.251963 0.013641
vt 0.287410 0.013641
vt 0.287410 0.267322
vt 0.251963 0.267322
vt 0.293288 0.267322
vt 0.293288 0.013641
vt 0.305913 0.013641
vt 0.305913 0.267322
vt 0.293294 0.267322
vt 0.293294 0.013641
vt 0.305918 0.013641
vt 0.305918 0.267322
vt 0.759957 0.210899
vt 0.759957 0.119185
vt 0.967982 0.119185
vt 0.967982 0.210899
vt 0.721637 0.317407
vt 0.724928 0.320790
vt 0.589675 0.409005
vt 0.589669 0.403988
vt 0.759957 0.401803
vt 0.759957 0.307806
vt 0.967983 0.307806
vt 0.967982 0.401803
vt 0.724966 0.320818
vt 0.589713 0.409033
vt 0.589706 0.404017
vt 0.721674 0.317435
vt 0.759957 0.213186
vt 0.967982 0.213186
vt 0.759957 0.029769
vt 0.967982 0.029769
vt 0.457715 0.321097
vt 0.461006 0.317714
vt 0.759957 0.216098
vt 0.967982 0.216098
vt 0.457752 0.321125
vt 0.461044 0.317742
vt 0.759957 0.027481
vt 0.967982 0.027481
vt 0.683088 0.870119
vt 0.578472 0.945877
vt 0.578470 0.941633
vt 0.578447 0.887284
vt 0.578440 0.870119
vt 0.517268 0.010800
vt 0.669051 0.010800
vt 0.669051 0.058644
vt 0.669051 0.074043
vt 0.517268 0.074043
vt 0.517268 0.058696
vt 0.707714 0.869083
vt 0.809239 0.869083
vt 0.809209 0.886391
vt 0.809112 0.940241
vt 0.809106 0.943945
vt 0.669051 0.137286
vt 0.517268 0.137286
vt 0.517268 0.088869
vt 0.669051 0.088882
vt 0.546436 0.969075
vt 0.513912 0.945062
vt 0.513914 0.941487
vt 0.513940 0.870119
vt 0.513934 0.887459
vt 0.412411 0.870119
vt 0.570930 0.893628
vt 0.570948 0.935295
vt 0.521455 0.935183
vt 0.521470 0.893762
vt 0.873801 0.940566
vt 0.873803 0.944820
vt 0.841738 0.968039
vt 0.873776 0.869083
vt 0.978390 0.869083
vt 0.873782 0.886266
vt 0.816751 0.892689
vt 0.866257 0.892592
vt 0.866272 0.934222
vt 0.816677 0.933973
vt 0.513954 0.698161
vt 0.513954 0.729546
vt 0.490908 0.729546
vt 0.434283 0.729546
vt 0.412174 0.729546
vt 0.412174 0.698161
vt 0.809256 0.728510
vt 0.707476 0.728510
vt 0.707476 0.697126
vt 0.809256 0.697126
vt 0.973477 0.435864
vt 0.973477 0.475370
vt 0.882598 0.475370
vt 0.803308 0.475370
vt 0.621869 0.475370
vt 0.544252 0.475370
vt 0.453500 0.475370
vt 0.453500 0.435864
vt 0.544513 0.475173
vt 0.453760 0.475173
vt 0.453760 0.435667
vt 0.973737 0.435667
vt 0.973737 0.475173
vt 0.882858 0.475173
vt 0.803568 0.475173
vt 0.622129 0.475173
vt 0.544513 0.652121
vt 0.453760 0.652121
vt 0.453760 0.590142
vt 0.544513 0.590142
vt 0.622129 0.590142
vt 0.803568 0.590142
vt 0.882858 0.590142
vt 0.973737 0.590142
vt 0.973737 0.652121
vt 0.882858 0.652121
vt 0.803568 0.652121
vt 0.622129 0.652121
vt 0.978153 0.869083
vt 0.707476 0.869083
vt 0.707476 0.819845
vt 0.809256 0.819845
vt 0.873811 0.819845
vt 0.978153 0.819845
vt 0.544252 0.590339
vt 0.621869 0.590339
vt 0.803308 0.590339
vt 0.882598 0.590339
vt 0.973477 0.590339
vt 0.973477 0.652318
vt 0.882598 0.652318
vt 0.803308 0.652318
vt 0.621869 0.652318
vt 0.544252 0.652318
vt 0.453500 0.652318
vt 0.453500 0.590339
vt 0.434283 0.820881
vt 0.490908 0.820881
vt 0.513954 0.820881
vt 0.578509 0.820881
vt 0.602851 0.820881
vt 0.658597 0.820881
vt 0.682850 0.820881
vt 0.682850 0.870119
vt 0.412174 0.870119
vt 0.412174 0.820881
vt 0.682850 0.698161
vt 0.682850 0.729546
vt 0.658597 0.729546
vt 0.602851 0.729546
vt 0.578509 0.729546
vt 0.578509 0.698161
vt 0.978153 0.728510
vt 0.873811 0.728510
vt 0.873811 0.697126
vt 0.978153 0.697126
vt 0.329148 0.439622
vt 0.329148 0.459480
vt 0.015883 0.459480
vt 0.015883 0.439622
vt 0.334976 0.420033
vt 0.334976 0.435313
vt 0.014992 0.435313
vt 0.014992 0.420033
vt 0.329148 0.439612
vt 0.329148 0.459470
vt 0.015883 0.459470
vt 0.015883 0.439612
vt 0.334956 0.435428
vt 0.014972 0.435428
vt 0.014972 0.420148
vt 0.334956 0.420148
vt 0.329148 0.463857
vt 0.329148 0.483715
vt 0.015883 0.483715
vt 0.015883 0.463857
vt 0.334976 0.281926
vt 0.334976 0.296732
vt 0.014992 0.296732
vt 0.014992 0.281926
vt 0.329148 0.463852
vt 0.329148 0.483710
vt 0.015883 0.483710
vt 0.015883 0.463852
vt 0.334956 0.296848
vt 0.014972 0.296848
vt 0.014972 0.282042
vt 0.334956 0.282042
vt 0.331370 0.420382
vt 0.314555 0.420382
vt 0.314555 0.297084
vt 0.331370 0.297084
vt 0.331369 0.420382
vt 0.314554 0.420382
vt 0.314554 0.297084
vt 0.331369 0.297084
vt 0.313776 0.420382
vt 0.304422 0.420382
vt 0.304422 0.297084
vt 0.313776 0.297084
vt 0.313783 0.420382
vt 0.304428 0.420382
vt 0.304428 0.297084
vt 0.313783 0.297084
vt 0.173480 0.420329
vt 0.156666 0.420329
vt 0.156666 0.297031
vt 0.173480 0.297031
vt 0.173469 0.420329
vt 0.156654 0.420329
vt 0.156654 0.297031
vt 0.173469 0.297031
vt 0.184177 0.420329
vt 0.174823 0.420329
vt 0.174823 0.297031
vt 0.184177 0.297031
vt 0.184177 0.420329
vt 0.174822 0.420329
vt 0.174822 0.297031
vt 0.184177 0.297031
vt 0.043265 0.420278
vt 0.026450 0.420278
vt 0.026450 0.296980
vt 0.043265 0.296980
vt 0.043267 0.420278
vt 0.026453 0.420278
vt 0.026453 0.296980
vt 0.043267 0.296980
vt 0.025673 0.420278
vt 0.016318 0.420278
vt 0.016318 0.296980
vt 0.025673 0.296980
vt 0.025676 0.420278
vt 0.016322 0.420278
vt 0.016322 0.296980
vt 0.025676 0.296980
vt 0.173480 0.420329
vt 0.156666 0.420329
vt 0.156666 0.297031
vt 0.173480 0.297031
vt 0.173469 0.420329
vt 0.156654 0.420329
vt 0.156654 0.297031
vt 0.173469 0.297031
vt 0.184177 0.420329
vt 0.174823 0.420329
vt 0.174823 0.297031
vt 0.184177 0.297031
vt 0.184177 0.420329
vt 0.174822 0.420329
vt 0.174822 0.297031
vt 0.184177 0.297031
vt 0.331370 0.420382
vt 0.314555 0.420382
vt 0.314555 0.297084
vt 0.331370 0.297084
vt 0.331369 0.420382
vt 0.314554 0.420382
vt 0.314554 0.297084
vt 0.331369 0.297084
vt 0.313776 0.420382
vt 0.304422 0.420382
vt 0.304422 0.297084
vt 0.313776 0.297084
vt 0.313783 0.420382
vt 0.304428 0.420382
vt 0.304428 0.297084
vt 0.313783 0.297084
vt 0.359543 0.262614
vt 0.334956 0.262614
vt 0.334956 0.282042
vt 0.334956 0.296848
vt 0.334956 0.420148
vt 0.334956 0.435428
vt 0.334956 0.451911
vt 0.359543 0.451911
vt 0.354088 0.474590
vt 0.354088 0.463095
vt 0.340155 0.463095
vt 0.340155 0.474590
vt 0.334976 0.281926
vt 0.334976 0.296732
vt 0.334976 0.420033
vt 0.334976 0.435313
vt 0.334976 0.451796
vt 0.359563 0.451796
vt 0.359563 0.262498
vt 0.334976 0.262498
vt 0.363731 0.299632
vt 0.384012 0.299632
vt 0.384012 0.277754
vt 0.363731 0.277754
vt 0.389216 0.262922
vt 0.389216 0.467095
vt 0.409501 0.467095
vt 0.409501 0.262922
vt 0.340283 0.459874
vt 0.354216 0.459874
vt 0.334828 0.478985
vt 0.334828 0.458700
vt 0.340304 0.459759
vt 0.354236 0.459759
vt 0.359415 0.458700
vt 0.359415 0.478985
vt 0.363722 0.299642
vt 0.384014 0.299642
vt 0.384014 0.277764
vt 0.363722 0.277764
vt 0.363706 0.301060
vt 0.363706 0.434050
vt 0.383990 0.434050
vt 0.383990 0.301060
vt 0.329148 0.439622
vt 0.015883 0.439622
vt 0.015883 0.459480
vt 0.329148 0.459480
vt 0.014992 0.420033
vt 0.014992 0.435313
vt 0.329148 0.439612
vt 0.015883 0.439612
vt 0.015883 0.459470
vt 0.329148 0.459470
vt 0.014972 0.420148
vt 0.014972 0.435428
vt 0.329148 0.463857
vt 0.015883 0.463857
vt 0.015883 0.483715
vt 0.329148 0.483715
vt 0.014992 0.281926
vt 0.014992 0.296732
vt 0.329148 0.463852
vt 0.015883 0.463852
vt 0.015883 0.483710
vt 0.329148 0.483710
vt 0.014972 0.282042
vt 0.014972 0.296848
vt 0.331370 0.420382
vt 0.331370 0.297084
vt 0.314555 0.297084
vt 0.314555 0.420382
vt 0.331369 0.420382
vt 0.331369 0.297084
vt 0.314554 0.297084
vt 0.314554 0.420382
vt 0.313776 0.420382
vt 0.313776 0.297084
vt 0.304422 0.297084
vt 0.304422 0.420382
vt 0.313783 0.420382
vt 0.313783 0.297084
vt 0.304428 0.297084
vt 0.304428 0.420382
vt 0.173480 0.420329
vt 0.173480 0.297031
vt 0.156666 0.297031
vt 0.156666 0.420329
vt 0.173469 0.420329
vt 0.173469 0.297031
vt 0.156654 0.297031
vt 0.156654 0.420329
vt 0.184177 0.420329
vt 0.184177 0.297031
vt 0.174823 0.297031
vt 0.174823 0.420329
vt 0.184177 0.420329
vt 0.184177 0.297031
vt 0.174822 0.297031
vt 0.174822 0.420329
vt 0.043265 0.420278
vt 0.043265 0.296980
vt 0.026450 0.296980
vt 0.026450 0.420278
vt 0.043267 0.420278
vt 0.043267 0.296980
vt 0.026453 0.296980
vt 0.026453 0.420278
vt 0.025673 0.420278
vt 0.025673 0.296980
vt 0.016318 0.296980
vt 0.016318 0.420278
vt 0.025676 0.420278
vt 0.025676 0.296980
vt 0.016322 0.296980
vt 0.016322 0.420278
vt 0.173480 0.420329
vt 0.173480 0.297031
vt 0.156666 0.297031
vt 0.156666 0.420329
vt 0.173469 0.420329
vt 0.173469 0.297031
vt 0.156654 0.297031
vt 0.156654 0.420329
vt 0.184177 0.420329
vt 0.184177 0.297031
vt 0.174823 0.297031
vt 0.174823 0.420329
vt 0.184177 0.420329
vt 0.184177 0.297031
vt 0.174822 0.297031
vt 0.174822 0.420329
vt 0.331370 0.420382
vt 0.331370 0.297084
vt 0.314555 0.297084
vt 0.314555 0.420382
vt 0.331369 0.420382
vt 0.331369 0.297084
vt 0.314554 0.297084
vt 0.314554 0.420382
vt 0.313776 0.420382
vt 0.313776 0.297084
vt 0.304422 0.297084
vt 0.304422 0.420382
vt 0.313783 0.420382
vt 0.313783 0.297084
vt 0.304428 0.297084
vt 0.304428 0.420382
vt 0.359543 0.262614
vt 0.359543 0.451911
vt 0.334956 0.451911
vt 0.334956 0.435428
vt 0.334956 0.420148
vt 0.334956 0.296848
vt 0.334956 0.282042
vt 0.334956 0.262614
vt 0.354088 0.474590
vt 0.340155 0.474590
vt 0.340155 0.463095
vt 0.354088 0.463095
vt 0.334976 0.281926
vt 0.334976 0.262498
vt 0.359563 0.262498
vt 0.359563 0.451796
vt 0.334976 0.451796
vt 0.334976 0.435313
vt 0.334976 0.420033
vt 0.334976 0.296732
vt 0.363731 0.299632
vt 0.363731 0.277754
vt 0.384012 0.277754
vt 0.384012 0.299632
vt 0.389216 0.262922
vt 0.409501 0.262922
vt 0.409501 0.467095
vt 0.389216 0.467095
vt 0.354216 0.459874
vt 0.340283 0.459874
vt 0.334828 0.478985
vt 0.334828 0.458700
vt 0.354236 0.459759
vt 0.340304 0.459759
vt 0.359415 0.458700
vt 0.359415 0.478985
vt 0.363722 0.299642
vt 0.363722 0.277764
vt 0.384014 0.277764
vt 0.384014 0.299642
vt 0.363706 0.301060
vt 0.383990 0.301060
vt 0.383990 0.434050
vt 0.363706 0.434050
vt 0.329148 0.439622
vt 0.329148 0.459480
vt 0.015883 0.459480
vt 0.015883 0.439622
vt 0.014992 0.435313
vt 0.014992 0.420033
vt 0.329148 0.439612
vt 0.329148 0.459470
vt 0.015883 0.459470
vt 0.015883 0.439612
vt 0.014972 0.435428
vt 0.014972 0.420148
vt 0.329148 0.463857
vt 0.329148 0.483715
vt 0.015883 0.483715
vt 0.015883 0.463857
vt 0.014992 0.296732
vt 0.014992 0.281926
vt 0.329148 0.463852
vt 0.329148 0.483710
vt 0.015883 0.483710
vt 0.015883 0.463852
vt 0.014972 0.296848
vt 0.014972 0.282042
vt 0.331370 0.420382
vt 0.314555 0.420382
vt 0.314555 0.297084
vt 0.331370 0.297084
vt 0.331369 0.420382
vt 0.314554 0.420382
vt 0.314554 0.297084
vt 0.331369 0.297084
vt 0.313776 0.420382
vt 0.304422 0.420382
vt 0.304422 0.297084
vt 0.313776 0.297084
vt 0.313783 0.420382
vt 0.304428 0.420382
vt 0.304428 0.297084
vt 0.313783 0.297084
vt 0.173480 0.420329
vt 0.156666 0.420329
vt 0.156666 0.297031
vt 0.173480 0.297031
vt 0.173469 0.420329
vt 0.156654 0.420329
vt 0.156654 0.297031
vt 0.173469 0.297031
vt 0.184177 0.420329
vt 0.174823 0.420329
vt 0.174823 0.297031
vt 0.184177 0.297031
vt 0.184177 0.420329
vt 0.174822 0.420329
vt 0.174822 0.297031
vt 0.184177 0.297031
vt 0.043265 0.420278
vt 0.026450 0.420278
vt 0.026450 0.296980
vt 0.043265 0.296980
vt 0.043267 0.420278
vt 0.026453 0.420278
vt 0.026453 0.296980
vt 0.043267 0.296980
vt 0.025673 0.420278
vt 0.016318 0.420278
vt 0.016318 0.296980
vt 0.025673 0.296980
vt 0.025676 0.420278
vt 0.016322 0.420278
vt 0.016322 0.296980
vt 0.025676 0.296980
vt 0.173480 0.420329
vt 0.156666 0.420329
vt 0.156666 0.297031
vt 0.173480 0.297031
vt 0.173469 0.420329
vt 0.156654 0.420329
vt 0.156654 0.297031
vt 0.173469 0.297031
vt 0.184177 0.420329
vt 0.174823 0.420329
vt 0.174823 0.297031
vt 0.184177 0.297031
vt 0.184177 0.420329
vt 0.174822 0.420329
vt 0.174822 0.297031
vt 0.184177 0.297031
vt 0.331370 0.420382
vt 0.314555 0.420382
vt 0.314555 0.297084
vt 0.331370 0.297084
vt 0.331369 0.420382
vt 0.314554 0.420382
vt 0.314554 0.297084
vt 0.331369 0.297084
vt 0.313776 0.420382
vt 0.304422 0.420382
vt 0.304422 0.297084
vt 0.313776 0.297084
vt 0.313783 0.420382
vt 0.304428 0.420382
vt 0.304428 0.297084
vt 0.313783 0.297084
vt 0.329148 0.439622
vt 0.329148 0.459480
vt 0.015883 0.459480
vt 0.015883 0.439622
vt 0.334976 0.420033
vt 0.334976 0.435313
vt 0.014992 0.435313
vt 0.014992 0.420033
vt 0.329148 0.439612
vt 0.329148 0.459470
vt 0.015883 0.459470
vt 0.015883 0.439612
vt 0.334956 0.435428
vt 0.014972 0.435428
vt 0.014972 0.420148
vt 0.334956 0.420148
vt 0.329148 0.463857
vt 0.329148 0.483715
vt 0.015883 0.483715
vt 0.015883 0.463857
vt 0.334976 0.281926
vt 0.334976 0.296732
vt 0.014992 0.296732
vt 0.014992 0.281926
vt 0.329148 0.463852
vt 0.329148 0.483710
vt 0.015883 0.483710
vt 0.015883 0.463852
vt 0.334956 0.296848
vt 0.014972 0.296848
vt 0.014972 0.282042
vt 0.334956 0.282042
vt 0.331370 0.420382
vt 0.314555 0.420382
vt 0.314555 0.297084
vt 0.331370 0.297084
vt 0.331369 0.420382
vt 0.314554 0.420382
vt 0.314554 0.297084
vt 0.331369 0.297084
vt 0.313776 0.420382
vt 0.304422 0.420382
vt 0.304422 0.297084
vt 0.313776 0.297084
vt 0.313783 0.420382
vt 0.304428 0.420382
vt 0.304428 0.297084
vt 0.313783 0.297084
vt 0.173480 0.420329
vt 0.156666 0.420329
vt 0.156666 0.297031
vt 0.173480 0.297031
vt 0.173469 0.420329
vt 0.156654 0.420329
vt 0.156654 0.297031
vt 0.173469 0.297031
vt 0.184177 0.420329
vt 0.174823 0.420329
vt 0.174823 0.297031
vt 0.184177 0.297031
vt 0.184177 0.420329
vt 0.174822 0.420329
vt 0.174822 0.297031
vt 0.184177 0.297031
vt 0.043265 0.420278
vt 0.026450 0.420278
vt 0.026450 0.296980
vt 0.043265 0.296980
vt 0.043267 0.420278
vt 0.026453 0.420278
vt 0.026453 0.296980
vt 0.043267 0.296980
vt 0.025673 0.420278
vt 0.016318 0.420278
vt 0.016318 0.296980
vt 0.025673 0.296980
vt 0.025676 0.420278
vt 0.016322 0.420278
vt 0.016322 0.296980
vt 0.025676 0.296980
vt 0.173480 0.420329
vt 0.156666 0.420329
vt 0.156666 0.297031
vt 0.173480 0.297031
vt 0.173469 0.420329
vt 0.156654 0.420329
vt 0.156654 0.297031
vt 0.173469 0.297031
vt 0.184177 0.420329
vt 0.174823 0.420329
vt 0.174823 0.297031
vt 0.184177 0.297031
vt 0.184177 0.420329
vt 0.174822 0.420329
vt 0.174822 0.297031
vt 0.184177 0.297031
vt 0.331370 0.420382
vt 0.314555 0.420382
vt 0.314555 0.297084
vt 0.331370 0.297084
vt 0.331369 0.420382
vt 0.314554 0.420382
vt 0.314554 0.297084
vt 0.331369 0.297084
vt 0.313776 0.420382
vt 0.304422 0.420382
vt 0.304422 0.297084
vt 0.313776 0.297084
vt 0.313783 0.420382
vt 0.304428 0.420382
vt 0.304428 0.297084
vt 0.313783 0.297084
vt 0.324849 0.503474
vt 0.347700 0.503474
vt 0.347700 0.762017
vt 0.324849 0.772544
vt 0.324846 0.772545
vt 0.324846 0.503473
vt 0.347700 0.503473
vt 0.347700 0.762019
vt 0.375819 0.503643
vt 0.399227 0.503643
vt 0.399227 0.772548
vt 0.375819 0.772548
vt 0.350003 0.503474
vt 0.373411 0.503474
vt 0.373411 0.772544
vt 0.350003 0.772544
vt 0.324849 0.503474
vt 0.347700 0.503474
vt 0.347700 0.762017
vt 0.324849 0.772544
vt 0.324846 0.772545
vt 0.324846 0.503473
vt 0.347700 0.503473
vt 0.347700 0.762019
vt 0.375819 0.503643
vt 0.399227 0.503643
vt 0.399227 0.772548
vt 0.375819 0.772548
vt 0.350003 0.503474
vt 0.373411 0.503474
vt 0.373411 0.772544
vt 0.350003 0.772544
vt 0.092854 0.269359
vt 0.120542 0.261076
vt 0.120541 0.008800
vt 0.092854 0.008800
vt 0.126678 0.008754
vt 0.151708 0.008754
vt 0.151708 0.261029
vt 0.126678 0.261029
vt 0.159024 0.008754
vt 0.184054 0.008754
vt 0.184054 0.269312
vt 0.159024 0.269312
vt 0.092851 0.008800
vt 0.120538 0.008800
vt 0.120538 0.261029
vt 0.092851 0.269312
vt 0.126678 0.008754
vt 0.151708 0.008754
vt 0.151708 0.261029
vt 0.126678 0.261029
vt 0.159024 0.008754
vt 0.184054 0.008754
vt 0.184054 0.269312
vt 0.159024 0.269312
vt 0.024075 0.570211
vt 0.134428 0.497154
vt 0.134428 0.620322
vt 0.024075 0.620322
vt 0.024116 0.620321
vt 0.024116 0.570210
vt 0.134469 0.497152
vt 0.134469 0.620321
vt 0.138732 0.496721
vt 0.248642 0.496721
vt 0.248642 0.619890
vt 0.138732 0.619890
vt 0.258228 0.614209
vt 0.258228 0.504299
vt 0.308339 0.504299
vt 0.308339 0.614209
vt 0.138822 0.732690
vt 0.138822 0.623296
vt 0.193519 0.677993
vt 0.248216 0.623296
vt 0.248216 0.732690
# Limiter

vn 0.000000 0.000000 1.000000
vn 0.000000 0.000000 1.000000
vn 0.000000 0.000000 1.000000
vn 0.000000 0.000000 1.000000
vn 0.000000 1.000000 0.000000
vn 0.000000 1.000000 0.000000
vn 0.000000 1.000000 0.000000
vn 0.000000 1.000000 0.000000
vn 0.000000 0.000000 -1.000000
vn 0.000000 0.000000 -1.000000
vn 0.000000 0.000000 -1.000000
vn 0.000000 0.000000 -1.000000
vn 0.000000 -1.000000 0.000000
vn 0.000000 -1.000000 0.000000
vn 0.000000 -1.000000 0.000000
vn 0.000000 -1.000000 0.000000
vn 1.000000 0.000000 0.000000
vn 1.000000 0.000000 0.000000
vn 1.000000 0.000000 0.000000
vn 1.000000 0.000000 0.000000
vn -1.000000 0.000000 0.000000
vn -1.000000 0.000000 0.000000
vn -1.000000 0.000000 0.000000
vn -1.000000 0.000000 0.000000
vn 0.000000 0.000000 -1.000000
vn 0.000000 0.000000 -1.000000
vn 0.000001 0.000000 -1.000000
vn 0.000000 0.000000 -1.000000
vn 0.000000 0.000000 -1.000000
vn 0.000001 0.000000 -1.000000
vn 0.000000 0.000000 -1.000000
vn 0.000000 0.000000 -1.000000
vn 0.000000 0.000000 -1.000000
vn 0.000000 0.000000 -1.000000
vn 0.000000 1.000000 0.000000
vn 0.000000 1.000000 0.000000
vn 0.000000 1.000000 0.000000
vn 0.000000 1.000000 0.000000
vn 0.000000 0.000000 -1.000000
vn -0.000001 0.000000 -1.000000
vn 0.000000 0.000000 -1.000000
vn 0.000000 0.000000 -1.000000
vn -0.000001 0.000000 -1.000000
vn 0.000000 0.000000 -1.000000
vn 0.000000 0.000000 -1.000000
vn 0.000000 0.000000 -1.000000
vn 0.000000 0.000000 -1.000000
vn 0.000000 0.000000 -1.000000
vn 0.000000 -1.000000 0.000000
vn 0.000000 -1.000000 0.000000
vn 0.000000 -1.000000 0.000000
vn 0.000000 -1.000000 0.000000
vn 0.000000 -1.000000 0.000000
vn 0.000000 -1.000000 0.000000
vn 0.000000 -1.000000 0.000000
vn 0.000000 -1.000000 0.000000
vn 0.000000 -1.000000 0.000000
vn 0.000000 -1.000000 0.000000
vn 0.000000 1.000000 0.000000
vn 0.000000 1.000000 0.000000
vn 0.000000 1.000000 0.000000
vn 0.000000 1.000000 0.000000
vn 0.000000 0.000000 -1.000000
vn 0.000000 0.000000 -1.000000
vn 0.000000 -1.000000 0.000000
vn 0.000000 -1.000000 0.000000
vn 0.000000 0.000000 -1.000000
vn 0.000000 0.000000 -1.000000
vn 0.000000 0.000000 -1.000000
vn 0.000000 0.000000 -1.000000
vn 1.000000 0.000000 0.000000
vn 1.000000 0.000000 0.000000
vn 1.000000 0.000000 0.000000
vn 1.000000 0.000000 0.000000
vn 0.000000 0.000000 -1.000000
vn 0.000000 0.000000 -1.000000
vn -1.000000 0.000000 0.000000
vn -1.000000 0.000000 0.000000
vn -1.000000 0.000000 0.000000
vn -1.000000 0.000000 0.000000
vn 0.000000 0.000000 -1.000000
vn 0.000000 0.000000 -1.000000
vn 0.694049 -0.719927 0.000000
vn 0.694049 -0.719927 0.000000
vn 0.694049 -0.719927 0.000000
vn 0.694049 -0.719927 0.000000
vn 0.000000 0.000000 -1.000000
vn 0.000000 0.000000 -1.000000
vn -0.698096 0.716004 0.000000
vn -0.698096 0.716004 0.000000
vn -0.698096 0.716004 0.000000
vn -0.698096 0.716004 0.000000
vn 0.000003 0.000000 -1.000000
vn 0.000003 0.000000 -1.000000
vn 0.706147 0.708065 0.000000
vn 0.706147 0.708065 0.000000
vn 0.706147 0.708065 0.000000
vn 0.706147 0.708065 0.000000
vn -0.000003 0.000000 -1.000000
vn -0.000003 0.000000 -1.000000
vn -0.716649 -0.697434 0.000000
vn -0.716649 -0.697434 0.000000
vn -0.716649 -0.697434 0.000000
vn -0.716649 -0.697434 0.000000
vn 0.000000 0.000000 1.000000
vn 0.000000 0.000000 1.000000
vn 0.000000 0.000000 1.000000
vn 0.000000 0.000000 1.000000
vn 0.000000 0.000000 -1.000000
vn 0.000000 0.000000 -1.000000
vn 0.000000 0.000000 -1.000000
vn 0.000000 0.000000 -1.000000
vn 0.000000 -1.000000 0.000000
vn 0.000000 -1.000000 0.000000
vn 0.000000 -1.000000 0.000000
vn 0.000000 -1.000000 0.000000
vn 1.000000 0.000000 0.000000
vn 1.000000 0.000000 0.000000
vn 1.000000 0.000000 0.000000
vn 1.000000 0.000000 0.000000
vn -1.000000 0.000000 0.000000
vn -1.000000 0.000000 0.000000
vn -1.000000 0.000000 0.000000
vn -1.000000 0.000000 0.000000
vn 0.000000 0.000000 1.000000
vn 0.000000 0.000000 1.000000
vn 0.000000 0.000000 1.000000
vn 0.000000 0.000000 1.000000
vn 0.000000 0.000000 -1.000000
vn 0.000000 0.000000 -1.000000
vn 0.000000 0.000000 -1.000000
vn 0.000000 0.000000 -1.000000
vn 0.000000 -1.000000 0.000000
vn 0.000000 -1.000000 0.000000
vn 0.000000 -1.000000 0.000000
vn 0.000000 -1.000000 0.000000
vn 1.000000 0.000000 0.000000
vn 1.000000 0.000000 0.000000
vn 1.000000 0.000000 0.000000
vn 1.000000 0.000000 0.000000
vn -1.000000 0.000000 0.000000
vn -1.000000 0.000000 0.000000
vn -1.000000 0.000000 0.000000
vn -1.000000 0.000000 0.000000
vn 0.000000 0.000000 1.000000
vn 0.000000 0.000000 1.000000
vn 0.000000 0.000000 1.000000
vn 0.000000 0.000000 1.000000
vn 0.000000 0.000000 -1.000000
vn 0.000000 0.000000 -1.000000
vn 0.000000 0.000000 -1.000000
vn 0.000000 0.000000 -1.000000
vn 0.000000 -1.000000 0.000000
vn 0.000000 -1.000000 0.000000
vn 0.000000 -1.000000 0.000000
vn 0.000000 -1.000000 0.000000
vn 1.000000 0.000000 0.000000
vn 1.000000 0.000000 0.000000
vn 1.000000 0.000000 0.000000
vn 1.000000 0.000000 0.000000
vn -1.000000 0.000000 0.000000
vn -1.000000 0.000000 0.000000
vn -1.000000 0.000000 0.000000
vn -1.000000 0.000000 0.000000
vn -0.548559 -0.836112 0.000000
vn -0.548559 -0.836112 0.000000
vn -0.548559 -0.836112 0.000000
vn -0.548559 -0.836112 0.000000
vn 0.000003 0.000000 1.000000
vn 0.000003 0.000000 1.000000
vn 0.000003 0.000000 1.000000
vn 0.000003 0.000000 1.000000
vn 0.546296 0.837592 0.000000
vn 0.546296 0.837592 0.000000
vn 0.546296 0.837592 0.000000
vn 0.546296 0.837592 0.000000
vn -0.000000 0.000000 1.000000
vn -0.000000 0.000000 1.000000
vn -0.000000 0.000000 1.000000
vn -0.000000 0.000000 1.000000
vn 0.716763 -0.697317 0.000000
vn 0.716763 -0.697317 0.000000
vn 0.716763 -0.697317 0.000000
vn 0.716763 -0.697317 0.000000
vn 0.556933 -0.830557 0.000000
vn 0.556933 -0.830557 0.000000
vn 0.556933 -0.830557 0.000000
vn 0.556933 -0.830557 0.000000
vn 0.000000 0.000000 1.000000
vn 0.000000 0.000000 1.000000
vn 0.000000 0.000000 1.000000
vn 0.000000 0.000000 1.000000
vn -0.554414 0.832241 0.000000
vn -0.554414 0.832241 0.000000
vn -0.554414 0.832241 0.000000
vn -0.554414 0.832241 0.000000
vn -0.000000 0.000000 1.000000
vn -0.000000 0.000000 1.000000
vn -0.000000 0.000000 1.000000
vn -0.000000 0.000000 1.000000
vn -0.716764 -0.697316 0.000000
vn -0.716764 -0.697316 0.000000
vn -0.716764 -0.697316 0.000000
vn -0.716764 -0.697316 0.000000
vn 0.000000 0.000000 1.000000
vn 0.000000 0.000000 1.000000
vn 0.000000 0.000000 1.000000
vn 0.000000 -0.000000 1.000000
vn 0.000000 0.000000 1.000000
vn -0.551789 0.833983 0.000000
vn -0.551789 0.833983 0.000000
vn -0.551789 0.833983 0.000000
vn -0.551789 0.833983 0.000000
vn -0.551789 0.833983 0.000000
vn -0.551789 0.833983 0.000000
vn 0.000000 0.000000 1.000000
vn 0.000000 0.000000 1.000000
vn -0.000002 -0.000002 1.000000
vn -0.000002 0.000002 1.000000
vn 0.000000 0.000000 1.000000
vn 0.544346 0.838861 -0.000000
vn 0.544346 0.838861 -0.000000
vn 0.544346 0.838861 -0.000000
vn 0.544346 0.838861 -0.000000
vn 0.544346 0.838861 -0.000000
vn 0.544346 0.838861 -0.000000
vn -0.000000 0.000000 1.000000
vn -0.000000 0.000000 1.000000
vn -0.000000 0.000000 1.000000
vn 0.000000 0.000000 1.000000
vn 0.000000 0.000000 1.000000
vn 0.000000 0.000000 1.000000
vn 0.000000 0.000000 1.000000
vn 0.000000 0.000000 1.000000
vn 0.000000 0.000000 1.000000
vn 0.000000 0.000000 1.000000
vn 0.000000 0.000000 1.000000
vn 0.000000 0.000000 1.000000
vn 0.000000 -0.000000 1.000000
vn 0.000000 -0.000000 1.000000
vn 0.000001 0.000002 1.000000
vn -0.000000 0.000000 1.000000
vn -0.000000 0.000000 1.000000
vn -0.000000 0.000000 1.000000
vn 0.000000 0.000000 1.000000
vn 0.000000 0.000000 1.000000
vn 0.000000 0.000000 1.000000
vn 0.000001 -0.000002 1.000000
vn 0.000000 0.000000 1.000000
vn 0.000000 0.000000 1.000000
vn -0.000002 -0.000002 1.000000
vn 0.000001 -0.000002 1.000000
vn 0.000002 0.000002 1.000000
vn -0.000002 0.000002 1.000000
vn 0.000000 0.000000 1.000000
vn 0.000000 0.000000 1.000000
vn 0.000000 0.000000 1.000000
vn 0.000000 0.000000 1.000000
vn 0.000000 0.000000 1.000000
vn 0.000000 0.000000 1.000000
vn 0.000000 0.000000 1.000000
vn 0.000000 0.000000 1.000000
vn 0.000000 0.000000 1.000000
vn 0.000000 0.000000 1.000000
vn 1.000000 0.000000 0.000000
vn 1.000000 0.000000 0.000000
vn 1.000000 0.000000 0.000000
vn 1.000000 0.000000 0.000000
vn 1.000000 0.000000 0.000000
vn 1.000000 0.000000 -0.000000
vn 1.000000 0.000000 -0.000000
vn 1.000000 0.000000 0.000000
vn 1.000000 -0.000000 0.000000
vn 1.000000 -0.000000 0.000000
vn 1.000000 -0.000000 0.000000
vn 1.000000 -0.000000 0.000000
vn 1.000000 -0.000000 -0.000000
vn 1.000000 -0.000000 0.000000
vn 1.000000 -0.000000 0.000000
vn 1.000000 -0.000000 0.000000
vn 1.000000 -0.000000 0.000000
vn 1.000000 -0.000000 0.000000
vn 1.000000 -0.000000 0.000000
vn 1.000000 -0.000000 0.000000
vn 1.000000 -0.000000 0.000000
vn 1.000000 -0.000000 0.000000
vn 1.000000 -0.000000 0.000000
vn 1.000000 -0.000000 -0.000000
vn 1.000000 -0.000000 0.000000
vn 1.000000 -0.000000 0.000000
vn 1.000000 -0.000000 0.000000
vn 1.000000 -0.000000 0.000000
vn 0.000000 0.000000 1.000000
vn 0.000000 0.000000 1.000000
vn 0.000000 0.000000 1.000000
vn 0.000000 0.000000 1.000000
vn 0.000000 0.000000 1.000000
vn 0.000000 0.000000 1.000000
vn 1.000000 -0.000000 -0.000000
vn 1.000000 -0.000000 0.000000
vn 1.000000 -0.000000 0.000000
vn 1.000000 -0.000000 0.000000
vn 1.000000 -0.000000 0.000000
vn 1.000000 -0.000000 0.000000
vn 1.000000 -0.000000 0.000000
vn 1.000000 -0.000000 0.000000
vn 1.000000 -0.000000 0.000000
vn 1.000000 -0.000000 0.000000
vn 1.000000 -0.000000 0.000000
vn 1.000000 -0.000000 -0.000000
vn 0.000000 0.000000 1.000000
vn 0.000000 0.000000 1.000000
vn 0.000000 0.000000 1.000000
vn 0.000000 0.000000 1.000000
vn 0.000000 0.000000 1.000000
vn 0.000000 0.000000 1.000000
vn 0.000000 0.000000 1.000000
vn 0.000000 0.000000 1.000000
vn 0.000000 0.000000 1.000000
vn 0.000000 0.000000 1.000000
vn 0.000000 0.000000 1.000000
vn 0.000000 0.000000 1.000000
vn 0.000000 0.000000 1.000000
vn 0.000000 0.000000 1.000000
vn 0.000000 0.000000 1.000000
vn 0.000000 0.000000 1.000000
vn 0.000000 0.000000 1.000000
vn 0.000000 0.000000 1.000000
vn 0.000000 0.000000 1.000000
vn 0.000000 0.000000 1.000000
vn 0.000000 1.000000 0.000000
vn 0.000000 1.000000 0.000000
vn 0.000000 1.000000 0.000000
vn 0.000000 1.000000 0.000000
vn 1.000000 0.000000 0.000000
vn 1.000000 0.000000 0.000000
vn 1.000000 0.000000 0.000000
vn 1.000000 0.000000 0.000000
vn 0.000000 -1.000000 0.000000
vn 0.000000 -1.000000 0.000000
vn 0.000000 -1.000000 0.000000
vn 0.000000 -1.000000 0.000000
vn 1.000000 0.000000 0.000000
vn 1.000000 0.000000 0.000000
vn 1.000000 0.000000 0.000000
vn 1.000000 0.000000 0.000000
vn 0.000000 1.000000 0.000000
vn 0.000000 1.000000 0.000000
vn 0.000000 1.000000 0.000000
vn 0.000000 1.000000 0.000000
vn 1.000000 0.000000 0.000000
vn 1.000000 0.000000 0.000000
vn 1.000000 0.000000 0.000000
vn 1.000000 0.000000 0.000000
vn 0.000000 -1.000000 0.000000
vn 0.000000 -1.000000 0.000000
vn 0.000000 -1.000000 0.000000
vn 0.000000 -1.000000 0.000000
vn 1.000000 0.000000 0.000000
vn 1.000000 0.000000 0.000000
vn 1.000000 0.000000 0.000000
vn 1.000000 0.000000 0.000000
vn -1.000000 0.000000 0.000000
vn -1.000000 0.000000 0.000000
vn -1.000000 0.000000 0.000000
vn -1.000000 0.000000 0.000000
vn 1.000000 0.000000 0.000000
vn 1.000000 0.000000 0.000000
vn 1.000000 0.000000 0.000000
vn 1.000000 0.000000 0.000000
vn 0.000000 0.000000 -1.000000
vn 0.000000 0.000000 -1.000000
vn 0.000000 0.000000 -1.000000
vn 0.000000 0.000000 -1.000000
vn 0.000000 0.000000 1.000000
vn 0.000000 0.000000 1.000000
vn 0.000000 0.000000 1.000000
vn 0.000000 0.000000 1.000000
vn -1.000000 0.000000 0.000000
vn -1.000000 0.000000 0.000000
vn -1.000000 0.000000 0.000000
vn -1.000000 0.000000 0.000000
vn 1.000000 0.000000 0.000000
vn 1.000000 0.000000 0.000000
vn 1.000000 0.000000 0.000000
vn 1.000000 0.000000 0.000000
vn 0.000000 0.000000 -1.000000
vn 0.000000 0.000000 -1.000000
vn 0.000000 0.000000 -1.000000
vn 0.000000 0.000000 -1.000000
vn 0.000000 0.000000 1.000000
vn 0.000000 0.000000 1.000000
vn 0.000000 0.000000 1.000000
vn 0.000000 0.000000 1.000000
vn -1.000000 0.000000 0.000000
vn -1.000000 0.000000 0.000000
vn -1.000000 0.000000 0.000000
vn -1.000000 0.000000 0.000000
vn 1.000000 0.000000 0.000000
vn 1.000000 0.000000 0.000000
vn 1.000000 0.000000 0.000000
vn 1.000000 0.000000 0.000000
vn 0.000000 0.000000 -1.000000
vn 0.000000 0.000000 -1.000000
vn 0.000000 0.000000 -1.000000
vn 0.000000 0.000000 -1.000000
vn 0.000000 0.000000 1.000000
vn 0.000000 0.000000 1.000000
vn 0.000000 0.000000 1.000000
vn 0.000000 0.000000 1.000000
vn -1.000000 0.000000 0.000000
vn -1.000000 0.000000 0.000000
vn -1.000000 0.000000 0.000000
vn -1.000000 0.000000 0.000000
vn 1.000000 0.000000 0.000000
vn 1.000000 0.000000 0.000000
vn 1.000000 0.000000 0.000000
vn 1.000000 0.000000 0.000000
vn 0.000000 0.000000 -1.000000
vn 0.000000 0.000000 -1.000000
vn 0.000000 0.000000 -1.000000
vn 0.000000 0.000000 -1.000000
vn 0.000000 0.000000 1.000000
vn 0.000000 0.000000 1.000000
vn 0.000000 0.000000 1.000000
vn 0.000000 0.000000 1.000000
vn -1.000000 0.000000 0.000000
vn -1.000000 0.000000 0.000000
vn -1.000000 0.000000 0.000000
vn -1.000000 0.000000 0.000000
vn 1.000000 0.000000 0.000000
vn 1.000000 0.000000 0.000000
vn 1.000000 0.000000 0.000000
vn 1.000000 0.000000 0.000000
vn 0.000000 0.000000 -1.000000
vn 0.000000 0.000000 -1.000000
vn 0.000000 0.000000 -1.000000
vn 0.000000 0.000000 -1.000000
vn 0.000000 0.000000 1.000000
vn 0.000000 0.000000 1.000000
vn 0.000000 0.000000 1.000000
vn 0.000000 0.000000 1.000000
vn 0.000000 0.000000 1.000000
vn 0.000000 0.000000 1.000000
vn 0.000000 0.000000 1.000000
vn 0.000000 0.000000 1.000000
vn 0.000000 0.000000 1.000000
vn 0.000000 0.000000 1.000000
vn 0.000000 0.000000 1.000000
vn 0.000000 0.000000 1.000000
vn 0.000000 -1.000000 0.000000
vn 0.000000 -1.000000 0.000000
vn 0.000000 -1.000000 0.000000
vn 0.000000 -1.000000 0.000000
vn -0.000002 0.000000 1.000000
vn -0.000002 0.000000 1.000000
vn -0.000002 0.000000 1.000000
vn -0.000002 0.000000 1.000000
vn -0.000004 0.000000 1.000000
vn -0.000004 0.000000 1.000000
vn -0.000004 0.000000 1.000000
vn -0.000004 0.000000 1.000000
vn -1.000000 0.000000 0.000000
vn -1.000000 0.000000 0.000000
vn -1.000000 0.000000 0.000000
vn -1.000000 0.000000 0.000000
vn 1.000000 0.000000 0.000000
vn 1.000000 0.000000 0.000000
vn 1.000000 0.000000 0.000000
vn 1.000000 0.000000 0.000000
vn 0.000000 0.455494 0.890239
vn 0.000000 0.455494 0.890239
vn 0.000000 0.455494 0.890239
vn 0.000000 0.455494 0.890239
vn -0.866907 -0.498470 0.000000
vn -0.866907 -0.498470 0.000000
vn -0.866907 -0.498470 0.000000
vn -0.866907 -0.498470 0.000000
vn 0.000000 -0.455494 0.890239
vn 0.000000 -0.455494 0.890239
vn 0.000000 -0.455494 0.890239
vn 0.000000 -0.455494 0.890239
vn 0.866907 -0.498470 0.000000
vn 0.866907 -0.498470 0.000000
vn 0.866907 -0.498470 0.000000
vn 0.866907 -0.498470 0.000000
vn -1.000000 0.000000 0.000000
vn -1.000000 0.000000 0.000000
vn -1.000000 0.000000 0.000000
vn -1.000000 0.000000 0.000000
vn -1.000000 0.000000 0.000000
vn -1.000000 0.000000 0.000000
vn -1.000000 0.000000 0.000000
vn -1.000000 0.000000 0.000000
vn 0.000000 1.000000 0.000000
vn 0.000000 1.000000 0.000000
vn 0.000000 1.000000 0.000000
vn 0.000000 1.000000 0.000000
vn 0.000000 0.000000 1.000000
vn 0.000000 0.000000 1.000000
vn 0.000000 -1.000000 0.000000
vn 0.000000 -1.000000 0.000000
vn 0.000000 -1.000000 0.000000
vn 0.000000 -1.000000 0.000000
vn 0.000000 0.000000 1.000000
vn 0.000000 0.000000 1.000000
vn 0.000000 1.000000 0.000000
vn 0.000000 1.000000 0.000000
vn 0.000000 1.000000 0.000000
vn 0.000000 1.000000 0.000000
vn 0.000000 0.000000 1.000000
vn 0.000000 0.000000 1.000000
vn 0.000000 -1.000000 0.000000
vn 0.000000 -1.000000 0.000000
vn 0.000000 -1.000000 0.000000
vn 0.000000 -1.000000 0.000000
vn 0.000000 0.000000 1.000000
vn 0.000000 0.000000 1.000000
vn 0.000000 0.000000 -1.000000
vn 0.000000 0.000000 -1.000000
vn 0.000000 0.000000 -1.000000
vn 0.000000 0.000000 -1.000000
vn 0.000000 0.000000 1.000000
vn 0.000000 0.000000 1.000000
vn 0.000000 0.000000 1.000000
vn 0.000000 0.000000 1.000000
vn -1.000000 0.000000 0.000000
vn -1.000000 0.000000 0.000000
vn -1.000000 0.000000 0.000000
vn -1.000000 0.000000 0.000000
vn 1.000000 0.000000 0.000000
vn 1.000000 0.000000 0.000000
vn 1.000000 0.000000 0.000000
vn 1.000000 0.000000 0.000000
vn 0.000000 0.000000 -1.000000
vn 0.000000 0.000000 -1.000000
vn 0.000000 0.000000 -1.000000
vn 0.000000 0.000000 -1.000000
vn 0.000000 0.000000 1.000000
vn 0.000000 0.000000 1.000000
vn 0.000000 0.000000 1.000000
vn 0.000000 0.000000 1.000000
vn -1.000000 0.000000 0.000000
vn -1.000000 0.000000 0.000000
vn -1.000000 0.000000 0.000000
vn -1.000000 0.000000 0.000000
vn 1.000000 0.000000 0.000000
vn 1.000000 0.000000 0.000000
vn 1.000000 0.000000 0.000000
vn 1.000000 0.000000 0.000000
vn 0.000000 0.000000 -1.000000
vn 0.000000 0.000000 -1.000000
vn 0.000000 0.000000 -1.000000
vn 0.000000 0.000000 -1.000000
vn 0.000000 0.000000 1.000000
vn 0.000000 0.000000 1.000000
vn 0.000000 0.000000 1.000000
vn 0.000000 0.000000 1.000000
vn -1.000000 0.000000 0.000000
vn -1.000000 0.000000 0.000000
vn -1.000000 0.000000 0.000000
vn -1.000000 0.000000 0.000000
vn 1.000000 0.000000 0.000000
vn 1.000000 0.000000 0.000000
vn 1.000000 0.000000 0.000000
vn 1.000000 0.000000 0.000000
vn 0.000000 0.000000 -1.000000
vn 0.000000 0.000000 -1.000000
vn 0.000000 0.000000 -1.000000
vn 0.000000 0.000000 -1.000000
vn 0.000000 0.000000 1.000000
vn 0.000000 0.000000 1.000000
vn 0.000000 0.000000 1.000000
vn 0.000000 0.000000 1.000000
vn -1.000000 0.000000 0.000000
vn -1.000000 0.000000 0.000000
vn -1.000000 0.000000 0.000000
vn -1.000000 0.000000 0.000000
vn 1.000000 0.000000 0.000000
vn 1.000000 0.000000 0.000000
vn 1.000000 0.000000 0.000000
vn 1.000000 0.000000 0.000000
vn 0.000000 0.000000 -1.000000
vn 0.000000 0.000000 -1.000000
vn 0.000000 0.000000 -1.000000
vn 0.000000 0.000000 -1.000000
vn 0.000000 0.000000 1.000000
vn 0.000000 0.000000 1.000000
vn 0.000000 0.000000 1.000000
vn 0.000000 0.000000 1.000000
vn -1.000000 0.000000 0.000000
vn -1.000000 0.000000 0.000000
vn -1.000000 0.000000 0.000000
vn -1.000000 0.000000 0.000000
vn 1.000000 0.000000 0.000000
vn 1.000000 0.000000 0.000000
vn 1.000000 0.000000 0.000000
vn 1.000000 0.000000 0.000000
vn -0.000001 0.000000 1.000000
vn -0.000001 0.000000 1.000000
vn -0.000001 0.000000 1.000000
vn -0.000001 0.000000 1.000000
vn -0.000001 0.000000 1.000000
vn -0.000001 0.000000 1.000000
vn -0.000001 0.000000 1.000000
vn -0.000001 0.000000 1.000000
vn 0.000000 -1.000000 0.000000
vn 0.000000 -1.000000 0.000000
vn 0.000000 -1.000000 0.000000
vn 0.000000 -1.000000 0.000000
vn -0.000000 0.000000 1.000000
vn -0.000000 0.000000 1.000000
vn -0.000000 0.000000 1.000000
vn -0.000000 0.000000 1.000000
vn -0.000000 0.000000 1.000000
vn -0.000000 0.000000 1.000000
vn -0.000000 0.000000 1.000000
vn -0.000000 0.000000 1.000000
vn 1.000000 0.000000 0.000000
vn 1.000000 0.000000 0.000000
vn 1.000000 0.000000 0.000000
vn 1.000000 0.000000 0.000000
vn -1.000000 0.000000 0.000000
vn -1.000000 0.000000 0.000000
vn -1.000000 0.000000 0.000000
vn -1.000000 0.000000 0.000000
vn 0.000000 0.455495 0.890238
vn 0.000000 0.455495 0.890238
vn 0.000000 0.455495 0.890238
vn 0.000000 0.455495 0.890238
vn 0.866907 -0.498470 0.000000
vn 0.866907 -0.498470 0.000000
vn 0.866907 -0.498470 0.000000
vn 0.866907 -0.498470 0.000000
vn 0.000000 -0.455495 0.890238
vn 0.000000 -0.455495 0.890238
vn 0.000000 -0.455495 0.890238
vn 0.000000 -0.455495 0.890238
vn -0.866907 -0.498470 0.000000
vn -0.866907 -0.498470 0.000000
vn -0.866907 -0.498470 0.000000
vn -0.866907 -0.498470 0.000000
vn 1.000000 0.000000 0.000000
vn 1.000000 0.000000 0.000000
vn 1.000000 0.000000 0.000000
vn 1.000000 0.000000 0.000000
vn 1.000000 0.000000 0.000000
vn 1.000000 0.000000 0.000000
vn 1.000000 0.000000 0.000000
vn 1.000000 0.000000 0.000000
vn 0.000000 1.000000 0.000000
vn 0.000000 1.000000 0.000000
vn 0.000000 1.000000 0.000000
vn 0.000000 1.000000 0.000000
vn 0.000000 0.000000 1.000000
vn 0.000000 0.000000 1.000000
vn 0.000000 -1.000000 0.000000
vn 0.000000 -1.000000 0.000000
vn 0.000000 -1.000000 0.000000
vn 0.000000 -1.000000 0.000000
vn 0.000000 0.000000 1.000000
vn 0.000000 0.000000 1.000000
vn 0.000000 1.000000 0.000000
vn 0.000000 1.000000 0.000000
vn 0.000000 1.000000 0.000000
vn 0.000000 1.000000 0.000000
vn 0.000000 0.000000 1.000000
vn 0.000000 0.000000 1.000000
vn 0.000000 -1.000000 0.000000
vn 0.000000 -1.000000 0.000000
vn 0.000000 -1.000000 0.000000
vn 0.000000 -1.000000 0.000000
vn 0.000000 0.000000 1.000000
vn 0.000000 0.000000 1.000000
vn 0.000000 0.000000 -1.000000
vn 0.000000 0.000000 -1.000000
vn 0.000000 0.000000 -1.000000
vn 0.000000 0.000000 -1.000000
vn 0.000000 0.000000 1.000000
vn 0.000000 0.000000 1.000000
vn 0.000000 0.000000 1.000000
vn 0.000000 0.000000 1.000000
vn 1.000000 0.000000 0.000000
vn 1.000000 0.000000 0.000000
vn 1.000000 0.000000 0.000000
vn 1.000000 0.000000 0.000000
vn -1.000000 0.000000 0.000000
vn -1.000000 0.000000 0.000000
vn -1.000000 0.000000 0.000000
vn -1.000000 0.000000 0.000000
vn 0.000000 0.000000 -1.000000
vn 0.000000 0.000000 -1.000000
vn 0.000000 0.000000 -1.000000
vn 0.000000 0.000000 -1.000000
vn 0.000000 0.000000 1.000000
vn 0.000000 0.000000 1.000000
vn 0.000000 0.000000 1.000000
vn 0.000000 0.000000 1.000000
vn 1.000000 0.000000 0.000000
vn 1.000000 0.000000 0.000000
vn 1.000000 0.000000 0.000000
vn 1.000000 0.000000 0.000000
vn -1.000000 0.000000 0.000000
vn -1.000000 0.000000 0.000000
vn -1.000000 0.000000 0.000000
vn -1.000000 0.000000 0.000000
vn 0.000000 0.000000 -1.000000
vn 0.000000 0.000000 -1.000000
vn 0.000000 0.000000 -1.000000
vn 0.000000 0.000000 -1.000000
vn 0.000000 0.000000 1.000000
vn 0.000000 0.000000 1.000000
vn 0.000000 0.000000 1.000000
vn 0.000000 0.000000 1.000000
vn 1.000000 0.000000 0.000000
vn 1.000000 0.000000 0.000000
vn 1.000000 0.000000 0.000000
vn 1.000000 0.000000 0.000000
vn -1.000000 0.000000 0.000000
vn -1.000000 0.000000 0.000000
vn -1.000000 0.000000 0.000000
vn -1.000000 0.000000 0.000000
vn 0.000000 0.000000 -1.000000
vn 0.000000 0.000000 -1.000000
vn 0.000000 0.000000 -1.000000
vn 0.000000 0.000000 -1.000000
vn 0.000000 0.000000 1.000000
vn 0.000000 0.000000 1.000000
vn 0.000000 0.000000 1.000000
vn 0.000000 0.000000 1.000000
vn 1.000000 0.000000 0.000000
vn 1.000000 0.000000 0.000000
vn 1.000000 0.000000 0.000000
vn 1.000000 0.000000 0.000000
vn -1.000000 0.000000 0.000000
vn -1.000000 0.000000 0.000000
vn -1.000000 0.000000 0.000000
vn -1.000000 0.000000 0.000000
vn 0.000000 0.000000 -1.000000
vn 0.000000 0.000000 -1.000000
vn 0.000000 0.000000 -1.000000
vn 0.000000 0.000000 -1.000000
vn 0.000000 0.000000 1.000000
vn 0.000000 0.000000 1.000000
vn 0.000000 0.000000 1.000000
vn 0.000000 0.000000 1.000000
vn 1.000000 0.000000 0.000000
vn 1.000000 0.000000 0.000000
vn 1.000000 0.000000 0.000000
vn 1.000000 0.000000 0.000000
vn -1.000000 0.000000 0.000000
vn -1.000000 0.000000 0.000000
vn -1.000000 0.000000 0.000000
vn -1.000000 0.000000 0.000000
vn 0.000000 1.000000 0.000000
vn 0.000000 1.000000 0.000000
vn 0.000000 1.000000 0.000000
vn 0.000000 1.000000 0.000000
vn 1.000000 0.000000 0.000000
vn 1.000000 0.000000 0.000000
vn 1.000000 0.000000 0.000000
vn 1.000000 0.000000 0.000000
vn 0.000000 -1.000000 0.000000
vn 0.000000 -1.000000 0.000000
vn 0.000000 -1.000000 0.000000
vn 0.000000 -1.000000 0.000000
vn 1.000000 0.000000 0.000000
vn 1.000000 0.000000 0.000000
vn 1.000000 0.000000 0.000000
vn 1.000000 0.000000 0.000000
vn 0.000000 1.000000 0.000000
vn 0.000000 1.000000 0.000000
vn 0.000000 1.000000 0.000000
vn 0.000000 1.000000 0.000000
vn 1.000000 0.000000 0.000000
vn 1.000000 0.000000 0.000000
vn 1.000000 0.000000 0.000000
vn 1.000000 0.000000 0.000000
vn 0.000000 -1.000000 0.000000
vn 0.000000 -1.000000 0.000000
vn 0.000000 -1.000000 0.000000
vn 0.000000 -1.000000 0.000000
vn 1.000000 0.000000 0.000000
vn 1.000000 0.000000 0.000000
vn 1.000000 0.000000 0.000000
vn 1.000000 0.000000 0.000000
vn -1.000000 0.000000 0.000000
vn -1.000000 0.000000 0.000000
vn -1.000000 0.000000 0.000000
vn -1.000000 0.000000 0.000000
vn 1.000000 0.000000 0.000000
vn 1.000000 0.000000 0.000000
vn 1.000000 0.000000 0.000000
vn 1.000000 0.000000 0.000000
vn 0.000000 0.000000 -1.000000
vn 0.000000 0.000000 -1.000000
vn 0.000000 0.000000 -1.000000
vn 0.000000 0.000000 -1.000000
vn 0.000000 0.000000 1.000000
vn 0.000000 0.000000 1.000000
vn 0.000000 0.000000 1.000000
vn 0.000000 0.000000 1.000000
vn -1.000000 0.000000 0.000000
vn -1.000000 0.000000 0.000000
vn -1.000000 0.000000 0.000000
vn -1.000000 0.000000 0.000000
vn 1.000000 0.000000 0.000000
vn 1.000000 0.000000 0.000000
vn 1.000000 0.000000 0.000000
vn 1.000000 0.000000 0.000000
vn 0.000000 0.000000 -1.000000
vn 0.000000 0.000000 -1.000000
vn 0.000000 0.000000 -1.000000
vn 0.000000 0.000000 -1.000000
vn 0.000000 0.000000 1.000000
vn 0.000000 0.000000 1.000000
vn 0.000000 0.000000 1.000000
vn 0.000000 0.000000 1.000000
vn -1.000000 0.000000 0.000000
vn -1.000000 0.000000 0.000000
vn -1.000000 0.000000 0.000000
vn -1.000000 0.000000 0.000000
vn 1.000000 0.000000 0.000000
vn 1.000000 0.000000 0.000000
vn 1.000000 0.000000 0.000000
vn 1.000000 0.000000 0.000000
vn 0.000000 0.000000 -1.000000
vn 0.000000 0.000000 -1.000000
vn 0.000000 0.000000 -1.000000
vn 0.000000 0.000000 -1.000000
vn 0.000000 0.000000 1.000000
vn 0.000000 0.000000 1.000000
vn 0.000000 0.000000 1.000000
vn 0.000000 0.000000 1.000000
vn -1.000000 0.000000 0.000000
vn -1.000000 0.000000 0.000000
vn -1.000000 0.000000 0.000000
vn -1.000000 0.000000 0.000000
vn 1.000000 0.000000 0.000000
vn 1.000000 0.000000 0.000000
vn 1.000000 0.000000 0.000000
vn 1.000000 0.000000 0.000000
vn 0.000000 0.000000 -1.000000
vn 0.000000 0.000000 -1.000000
vn 0.000000 0.000000 -1.000000
vn 0.000000 0.000000 -1.000000
vn 0.000000 0.000000 1.000000
vn 0.000000 0.000000 1.000000
vn 0.000000 0.000000 1.000000
vn 0.000000 0.000000 1.000000
vn -1.000000 0.000000 0.000000
vn -1.000000 0.000000 0.000000
vn -1.000000 0.000000 0.000000
vn -1.000000 0.000000 0.000000
vn 1.000000 0.000000 0.000000
vn 1.000000 0.000000 0.000000
vn 1.000000 0.000000 0.000000
vn 1.000000 0.000000 0.000000
vn 0.000000 0.000000 -1.000000
vn 0.000000 0.000000 -1.000000
vn 0.000000 0.000000 -1.000000
vn 0.000000 0.000000 -1.000000
vn 0.000000 0.000000 1.000000
vn 0.000000 0.000000 1.000000
vn 0.000000 0.000000 1.000000
vn 0.000000 0.000000 1.000000
vn -0.000004 0.000000 1.000000
vn -0.000004 0.000000 1.000000
vn -0.000004 0.000000 1.000000
vn -0.000004 0.000000 1.000000
vn -0.000004 0.000000 1.000000
vn -0.000004 0.000000 1.000000
vn -0.000004 0.000000 1.000000
vn -0.000004 0.000000 1.000000
vn 1.000000 0.000000 0.000000
vn 1.000000 0.000000 0.000000
vn 1.000000 0.000000 0.000000
vn 1.000000 0.000000 0.000000
vn -1.000000 0.000000 0.000000
vn -1.000000 0.000000 0.000000
vn -1.000000 0.000000 0.000000
vn -1.000000 0.000000 0.000000
vn -0.000004 0.000000 -1.000000
vn -0.000004 0.000000 -1.000000
vn -0.000004 0.000000 -1.000000
vn -0.000004 0.000000 -1.000000
vn -0.000002 0.000000 -1.000000
vn -0.000002 0.000000 -1.000000
vn -0.000002 0.000000 -1.000000
vn -0.000002 0.000000 -1.000000
vn -1.000000 0.000000 0.000000
vn -1.000000 0.000000 0.000000
vn -1.000000 0.000000 0.000000
vn -1.000000 0.000000 0.000000
vn 1.000000 0.000000 0.000000
vn 1.000000 0.000000 0.000000
vn 1.000000 0.000000 0.000000
vn 1.000000 0.000000 0.000000
vn 0.000000 0.000000 1.000000
vn 0.000000 0.000000 1.000000
vn 0.000000 0.000000 1.000000
vn 0.000000 0.000000 1.000000
vn 1.000000 0.000000 0.000000
vn 1.000000 0.000000 0.000000
vn 1.000000 0.000000 0.000000
vn 1.000000 0.000000 0.000000
vn -1.000000 0.000000 0.000000
vn -1.000000 0.000000 0.000000
vn -1.000000 0.000000 0.000000
vn -1.000000 0.000000 0.000000
vn 0.000000 0.000000 -1.000000
vn 0.000000 0.000000 -1.000000
vn 0.000000 0.000000 -1.000000
vn 0.000000 0.000000 -1.000000
vn -1.000000 0.000000 0.000000
vn -1.000000 0.000000 0.000000
vn -1.000000 0.000000 0.000000
vn -1.000000 0.000000 0.000000
vn 1.000000 0.000000 0.000000
vn 1.000000 0.000000 0.000000
vn 1.000000 0.000000 0.000000
vn 1.000000 0.000000 0.000000
vn 0.000000 0.000000 1.000000
vn 0.000000 0.000000 1.000000
vn 0.000000 0.000000 1.000000
vn 0.000000 0.000000 1.000000
vn -0.000000 0.000000 1.000000
vn -0.000000 0.000000 1.000000
vn -0.000000 0.000000 1.000000
vn -0.000000 0.000000 1.000000
vn 1.000000 0.000000 0.000000
vn 1.000000 0.000000 0.000000
vn 1.000000 0.000000 0.000000
vn 1.000000 0.000000 0.000000
vn -1.000000 0.000000 0.000000
vn -1.000000 0.000000 0.000000
vn -1.000000 0.000000 0.000000
vn -1.000000 0.000000 0.000000
vn -0.652417 0.757860 -0.000001
vn -0.652417 0.757860 -0.000001
vn -0.652417 0.757860 -0.000001
vn -0.000001 0.757860 0.652417
vn -0.000001 0.757860 0.652417
vn -0.000001 0.757860 0.652417
vn 0.652417 0.757860 0.000001
vn 0.652417 0.757860 0.000001
vn 0.652417 0.757860 0.000001
vn 0.000000 0.757860 -0.652417
vn 0.000000 0.757860 -0.652417
vn 0.000000 0.757860 -0.652417
# Limiter

# usemtl lambert9SG
g Cottage_House
f 1/1/1 2/2/2 4/3/3 3/4/4
f 3/5/5 4/6/6 6/7/7 5/8/8
f 5/9/9 6/10/10 8/11/11 7/12/12
f 7/13/13 8/14/14 2/15/15 1/16/16
f 2/17/17 8/18/18 6/19/19 4/20/20
f 7/21/21 1/22/22 3/23/23 5/24/24
f 9/25/25 13/26/26 25/27/27 28/28/28
f 10/29/29 14/30/30 15/31/31 11/32/32
f 11/32/32 15/31/31 29/33/33 32/34/34
f 13/35/35 25/36/36 26/37/37 17/38/38
f 17/39/39 26/40/40 27/41/41 21/42/42
f 18/43/43 19/44/44 23/45/45 22/46/46
f 19/44/44 30/47/47 31/48/48 23/45/45
f 21/49/49 27/50/50 28/51/51 9/52/52
f 22/53/53 23/54/54 11/55/55 10/56/56
f 23/54/54 31/57/57 32/58/58 11/55/55
f 27/41/41 26/40/40 18/43/43 22/46/46
f 28/51/51 27/50/50 22/53/53 10/56/56
f 25/27/27 14/30/30 10/29/29 28/28/28
f 29/59/59 16/60/60 20/61/61 30/62/62
f 31/48/48 30/47/47 20/63/63 24/64/64
f 32/58/58 31/57/57 24/65/65 12/66/66
f 29/33/33 16/67/67 12/68/68 32/34/34
f 14/30/30 33/69/69 34/70/70 15/31/31
f 15/71/71 19/72/72 35/73/73 34/74/74
f 19/44/44 18/43/43 36/75/75 35/76/76
f 18/77/77 14/78/78 33/79/79 36/80/80
f 15/31/31 37/81/81 38/82/82 29/33/33
f 29/83/83 30/84/84 39/85/85 38/86/86
f 30/47/47 19/44/44 40/87/87 39/88/88
f 19/89/89 15/90/90 37/91/91 40/92/92
f 25/27/27 41/93/93 42/94/94 14/30/30
f 14/95/95 18/96/96 43/97/97 42/98/98
f 18/43/43 26/40/40 44/99/99 43/100/100
f 26/101/101 25/102/102 41/103/103 44/104/104
f 45/105/105 46/106/106 48/107/107 47/108/108
f 49/109/109 50/110/110 52/111/111 51/112/112
f 51/113/113 52/114/114 46/115/115 45/116/116
f 46/117/117 52/118/118 50/119/119 48/120/120
f 51/121/121 45/122/122 47/123/123 49/124/124
f 53/125/125 54/126/126 56/127/127 55/128/128
f 57/129/129 58/130/130 60/131/131 59/132/132
f 59/133/133 60/134/134 54/135/135 53/136/136
f 54/137/137 60/138/138 58/139/139 56/140/140
f 59/141/141 53/142/142 55/143/143 57/144/144
f 61/145/145 62/146/146 64/147/147 63/148/148
f 65/149/149 66/150/150 68/151/151 67/152/152
f 67/153/153 68/154/154 62/155/155 61/156/156
f 62/157/157 68/158/158 66/159/159 64/160/160
f 67/161/161 61/162/162 63/163/163 65/164/164
f 69/165/165 70/166/166 72/167/167 71/168/168
f 71/169/169 73/170/170 74/171/171 72/172/172
f 73/173/173 74/174/174 76/175/175 75/176/176
f 75/177/177 76/178/178 70/179/179 69/180/180
f 75/181/181 69/165/182 71/168/183 73/182/184
f 70/166/185 77/183/186 78/184/187 72/167/188
f 72/172/189 74/171/190 79/185/191 78/186/192
f 74/174/193 79/187/194 80/188/195 76/175/196
f 76/178/197 80/189/198 77/190/199 70/179/200
f 77/183/201 80/191/202 79/192/203 78/184/204
f 81/193/205 88/194/206 91/195/207 93/196/208 87/197/209
f 82/198/210 84/199/211 96/200/212 86/201/213 85/202/214 90/203/215
f 84/204/216 95/205/217 99/206/218 101/207/219 96/208/220
f 83/209/221 81/210/222 88/211/223 85/202/224 86/201/225 98/212/226
f 91/195/207 88/194/227 85/213/228 90/214/229 92/215/230
f 89/216/231 94/217/232 92/215/230 90/214/233 82/218/234
f 103/219/235 106/220/236 105/221/237 104/222/238
f 87/197/239 93/196/208 94/217/232 89/216/240
f 101/207/219 102/223/241 98/224/242 86/225/243 96/208/244
f 97/226/245 83/227/246 98/224/247 102/223/241 100/228/248
f 95/205/249 97/226/250 100/228/248 99/206/218
f 107/229/251 108/230/252 109/231/253 110/232/254
f 93/196/208 103/219/235 104/222/238 94/217/232
f 94/217/232 104/222/238 105/221/237 92/215/230
f 92/215/230 105/221/237 106/220/236 91/195/207
f 91/195/207 106/220/236 103/219/235 93/196/208
f 99/206/218 100/228/248 108/230/252 107/229/251
f 100/228/248 102/223/241 109/231/253 108/230/252
f 102/223/241 101/207/219 110/232/254 109/231/253
f 101/207/219 99/206/218 107/229/251 110/232/254
f 128/233/255 137/234/256 143/235/257 145/236/258 136/237/259 112/238/260
f 134/239/261 135/240/262 118/241/263 129/242/264
f 112/243/265 136/244/266 148/245/267 154/246/268 160/247/269 166/248/270 135/249/271 118/250/272
f 167/251/273 132/252/274 117/253/275 111/254/276 131/255/277 149/256/278 155/257/279 161/258/280
f 169/259/281 115/260/282 120/261/283 168/262/284 162/263/285 156/264/286 150/265/287 119/266/288 113/267/289 151/268/290 157/269/291 163/270/292
f 115/271/293 116/272/294 121/273/295 130/274/296 126/275/297 120/276/298
f 165/277/299 159/278/300 153/279/301 147/280/302 122/281/303 114/282/304 152/283/305 158/284/306 164/285/307 170/286/308 116/287/309 121/288/310
f 146/289/311 144/290/312 127/291/313 123/292/314 142/293/315 140/294/316 119/295/317 113/296/318 114/297/319 122/298/320
f 111/299/321 131/300/322 139/301/323 141/302/324 138/303/325 124/304/326
f 132/305/327 133/306/328 125/307/329 117/308/330
f 138/303/325 123/292/314 127/291/313 137/234/256 128/233/255 124/304/326
f 134/239/261 129/242/264 125/307/329 133/306/328 126/275/297 130/274/296
f 132/252/274 167/251/273 168/262/284 120/261/283
f 120/276/298 126/275/297 133/306/328 132/305/327
f 130/274/296 121/273/295 135/240/262 134/239/261
f 166/248/270 165/277/299 121/288/310 135/249/271
f 146/289/311 122/298/320 136/237/259 145/236/258
f 142/293/315 123/292/314 138/303/325 141/302/324
f 131/300/322 119/295/317 140/294/316 139/301/323
f 140/294/316 142/293/315 141/302/324 139/301/323
f 137/234/256 127/291/313 144/290/312 143/235/257
f 144/290/312 146/289/311 145/236/258 143/235/257
f 136/244/266 122/281/303 147/280/302 148/245/267
f 150/265/287 149/256/278 131/255/277 119/266/288
f 148/245/267 147/280/302 153/279/301 154/246/268
f 156/264/286 155/257/279 149/256/278 150/265/287
f 154/246/268 153/279/301 159/278/300 160/247/269
f 162/263/285 161/258/280 155/257/279 156/264/286
f 160/247/269 159/278/300 165/277/299 166/248/270
f 168/262/284 167/251/273 161/258/280 162/263/285
f 174/309/331 173/310/332 179/311/333 180/312/334
f 173/313/335 171/314/336 181/315/337 179/316/338
f 171/317/339 172/318/340 182/319/341 181/320/342
f 172/321/343 182/322/344 180/323/345 174/324/346
f 176/325/347 175/326/348 183/327/349 184/328/350
f 175/329/351 178/330/352 185/331/353 183/332/354
f 178/333/355 177/334/356 186/335/357 185/336/358
f 177/337/359 186/338/360 184/339/361 176/340/362
f 187/341/363 188/342/364 190/343/365 189/344/366
f 191/345/367 192/346/368 194/347/369 193/348/370
f 188/349/371 194/350/372 192/351/373 190/352/374
f 193/353/375 187/354/376 189/355/377 191/356/378
f 195/357/379 196/358/380 198/359/381 197/360/382
f 199/361/383 200/362/384 202/363/385 201/364/386
f 196/365/387 202/366/388 200/367/389 198/368/390
f 201/369/391 195/370/392 197/371/393 199/372/394
f 203/373/395 204/374/396 206/375/397 205/376/398
f 207/377/399 208/378/400 210/379/401 209/380/402
f 204/381/403 210/382/404 208/383/405 206/384/406
f 209/385/407 203/386/408 205/387/409 207/388/410
f 211/389/411 212/390/412 214/391/413 213/392/414
f 215/393/415 216/394/416 218/395/417 217/396/418
f 212/397/419 218/398/420 216/399/421 214/400/422
f 217/401/423 211/402/424 213/403/425 215/404/426
f 219/405/427 220/406/428 222/407/429 221/408/430
f 223/409/431 224/410/432 226/411/433 225/412/434
f 220/413/435 226/414/436 224/415/437 222/416/438
f 225/417/439 219/418/440 221/419/441 223/420/442
f 227/421/443 228/422/444 244/423/445 245/424/446 242/425/447 240/426/448 230/427/449 229/428/450
f 235/429/451 238/430/452 237/431/453 236/432/454
f 243/433/455 246/434/456 241/435/457 239/436/458 232/437/459 231/438/460 233/439/461 234/440/462
f 228/441/463 244/442/464 243/443/465 234/444/466
f 233/445/467 231/446/468 229/447/469 227/448/470
f 229/428/471 230/427/472 236/449/473 235/450/474
f 230/451/475 236/432/476 237/431/477 232/452/478
f 232/437/479 237/453/480 238/454/481 231/438/482
f 231/455/483 238/430/484 235/429/485 229/456/486
f 240/457/487 230/458/488 232/459/489 239/460/490
f 245/461/491 242/462/492 241/463/493 246/464/494
f 242/465/495 248/466/496 247/467/497 241/468/498
f 241/435/457 247/469/499 249/470/500 239/436/458
f 239/471/501 249/472/502 250/473/503 240/474/504
f 240/426/448 242/425/447 248/475/505 250/476/506
f 244/477/507 252/478/508 251/479/509 243/480/510
f 243/433/455 251/481/511 253/482/512 246/434/456
f 246/483/513 253/484/514 254/485/515 245/486/516
f 245/424/446 244/423/445 252/487/517 254/488/518
f 255/489/519 257/490/520 258/491/521 256/492/522
f 259/493/523 261/494/524 262/495/525 260/496/526
f 256/497/527 258/498/528 260/499/529 262/500/530
f 261/501/531 259/502/532 257/503/533 255/504/534
f 263/505/535 265/506/536 266/507/537 264/508/538
f 267/509/539 269/510/540 270/511/541 268/512/542
f 264/513/543 266/514/544 268/515/545 270/516/546
f 269/517/547 267/518/548 265/519/549 263/520/550
f 271/521/551 273/522/552 274/523/553 272/524/554
f 275/525/555 277/526/556 278/527/557 276/528/558
f 272/529/559 274/530/560 276/531/561 278/532/562
f 277/533/563 275/534/564 273/535/565 271/536/566
f 279/537/567 281/538/568 282/539/569 280/540/570
f 283/541/571 285/542/572 286/543/573 284/544/574
f 280/545/575 282/546/576 284/547/577 286/548/578
f 285/549/579 283/550/580 281/551/581 279/552/582
f 287/553/583 289/554/584 290/555/585 288/556/586
f 291/557/587 293/558/588 294/559/589 292/560/590
f 288/561/591 290/562/592 292/563/593 294/564/594
f 293/565/595 291/566/596 289/567/597 287/568/598
f 295/569/599 297/570/600 298/571/601 308/572/602 310/573/603 313/574/604 312/575/605 296/576/606
f 303/577/607 304/578/608 305/579/609 306/580/610
f 311/581/611 302/582/612 301/583/613 299/584/614 300/585/615 307/586/616 309/587/617 314/588/618
f 296/589/619 302/590/620 311/591/621 312/592/622
f 301/593/623 295/594/624 297/595/625 299/596/626
f 297/570/627 303/597/628 304/598/629 298/571/630
f 298/599/631 300/600/632 305/579/633 304/578/634
f 300/585/635 299/584/636 306/601/637 305/602/638
f 299/603/639 297/604/640 303/577/641 306/580/642
f 308/605/643 307/606/644 300/607/645 298/608/646
f 313/609/647 314/610/648 309/611/649 310/612/650
f 310/613/651 309/614/652 315/615/653 316/616/654
f 309/587/617 307/586/616 317/617/655 315/618/656
f 307/619/657 308/620/658 318/621/659 317/622/660
f 308/572/602 318/623/661 316/624/662 310/573/603
f 312/625/663 311/626/664 319/627/665 320/628/666
f 311/581/611 314/588/618 321/629/667 319/630/668
f 314/631/669 313/632/670 322/633/671 321/634/672
f 313/574/604 322/635/673 320/636/674 312/575/605
f 323/637/675 324/638/676 326/639/677 325/640/678
f 327/641/679 328/642/680 330/643/681 329/644/682
f 324/645/683 330/646/684 328/647/685 326/648/686
f 329/649/687 323/650/688 325/651/689 327/652/690
f 331/653/691 332/654/692 334/655/693 333/656/694
f 335/657/695 336/658/696 338/659/697 337/660/698
f 332/661/699 338/662/700 336/663/701 334/664/702
f 337/665/703 331/666/704 333/667/705 335/668/706
f 339/669/707 340/670/708 342/671/709 341/672/710
f 343/673/711 344/674/712 346/675/713 345/676/714
f 340/677/715 346/678/716 344/679/717 342/680/718
f 345/681/719 339/682/720 341/683/721 343/684/722
f 347/685/723 348/686/724 350/687/725 349/688/726
f 351/689/727 352/690/728 354/691/729 353/692/730
f 348/693/731 354/694/732 352/695/733 350/696/734
f 353/697/735 347/698/736 349/699/737 351/700/738
f 355/701/739 356/702/740 358/703/741 357/704/742
f 359/705/743 360/706/744 362/707/745 361/708/746
f 356/709/747 362/710/748 360/711/749 358/712/750
f 361/713/751 355/714/752 357/715/753 359/716/754
f 366/717/755 365/718/756 371/719/757 372/720/758
f 365/721/759 363/722/760 373/723/761 371/724/762
f 363/725/763 364/726/764 374/727/765 373/728/766
f 364/729/767 374/730/768 372/731/769 366/732/770
f 368/733/771 367/734/772 375/735/773 376/736/774
f 367/737/775 370/738/776 377/739/777 375/740/778
f 370/741/779 369/742/780 378/743/781 377/744/782
f 369/745/783 378/746/784 376/747/785 368/748/786
f 379/749/787 380/750/788 382/751/789 381/752/790
f 383/753/791 384/754/792 386/755/793 385/756/794
f 380/757/795 386/758/796 384/759/797 382/760/798
f 385/761/799 379/762/800 381/763/801 383/764/802
f 387/765/803 388/766/804 390/767/805 389/768/806
f 391/769/807 392/770/808 394/771/809 393/772/810
f 388/773/811 394/774/812 392/775/813 390/776/814
f 393/777/815 387/778/816 389/779/817 391/780/818
f 395/781/819 396/782/820 398/783/821 397/784/822
f 399/785/823 400/786/824 402/787/825 401/788/826
f 396/789/827 402/790/828 400/791/829 398/792/830
f 401/793/831 395/794/832 397/795/833 399/796/834
f 403/797/835 404/798/836 406/799/837 405/800/838
f 407/801/839 408/802/840 410/803/841 409/804/842
f 404/805/843 410/806/844 408/807/845 406/808/846
f 409/809/847 403/810/848 405/811/849 407/812/850
f 411/813/851 412/814/852 414/815/853 413/816/854
f 415/817/855 416/818/856 418/819/857 417/820/858
f 412/821/859 418/822/860 416/823/861 414/824/862
f 417/825/863 411/826/864 413/827/865 415/828/866
f 419/829/867 420/830/868 422/831/869 421/832/870
f 423/833/871 425/834/872 426/835/873 424/836/874
f 420/837/875 426/838/876 424/839/877 422/840/878
f 425/841/879 419/842/880 421/843/881 423/844/882
f 427/845/883 428/846/884 430/847/885 429/848/886
f 431/849/887 433/850/888 434/851/889 432/852/890
f 428/853/891 434/854/892 432/855/893 430/856/894
f 433/857/895 427/858/896 429/859/897 431/860/898
f 439/861/899 441/864/900 442/863/901 440/862/902
f 436/865/903 442/866/904 440/867/905 438/868/906
f 441/869/907 435/870/908 437/871/909 439/872/910
f 443/873/911 444/874/912 446/875/913 445/876/914
f 444/877/915 450/878/916 448/879/917 446/880/918
f 449/881/919 443/882/920 445/883/921 447/884/922
f 451/885/923 452/886/924 454/887/925 453/888/926
f 455/889/927 457/890/928 458/891/929 456/892/930
f 452/893/931 458/894/932 456/895/933 454/896/934
f 457/897/935 451/898/936 453/899/937 455/900/938
f 459/901/939 460/902/940 463/903/941
f 460/902/942 461/904/943 463/903/944
f 461/904/945 462/905/946 463/903/947
f 462/905/948 459/901/949 463/903/950
g